java version "1.7.0_151"
OpenJDK Runtime Environment (rhel-2.6.11.0.el6_9-x86_64 u151-b00)
OpenJDK 64-Bit Server VM (build 24.151-b00, mixed mode)
    uintx AdaptivePermSizeWeight                    = 20              {product}           
     intx CompilerThreadStackSize                   = 0               {pd product}        
    uintx ErgoHeapSizeLimit                         = 0               {product}           
    uintx HeapSizePerGCThread                       = 87241520        {product}           
    uintx InitialHeapSize                          := 2108432064      {product}           
    uintx LargePageHeapSizeThreshold                = 134217728       {product}           
    uintx MaxHeapSize                              := 32036093952     {product}           
    uintx MaxPermSize                               = 174063616       {pd product}        
    uintx PermSize                                  = 21757952        {pd product}        
     intx ThreadStackSize                           = 1024            {pd product}        
     intx VMThreadStackSize                         = 1024            {pd product}        
myHadoop: Setting MH_IPOIB_TRANSFORM='s/\([^.]*\).*$/\1.ibnet/' from myhadoop.conf
myHadoop: Setting MH_SCRATCH_DIR=/scratch/$USER/$SLURM_JOBID from myhadoop.conf
myHadoop: Using HADOOP_HOME=/opt/hadoop/2.6.0
myHadoop: Using MH_SCRATCH_DIR=/scratch/cochung/15397918
myHadoop: Using JAVA_HOME=/usr/java/latest
myHadoop: Generating Hadoop configuration in directory in /home/cochung/cometcluster...
myHadoop: Backing up old config dir to /home/cochung/cometcluster.74...
`/home/cochung/cometcluster' -> `/home/cochung/cometcluster.74'
myHadoop: Designating comet-20-04.ibnet as master node (namenode, secondary namenode, and jobtracker)
myHadoop: The following nodes will be slaves (datanode, tasktracer):
comet-20-04.ibnet
comet-20-24.ibnet
comet-20-44.ibnet
comet-20-49.ibnet
comet-20-50.ibnet
comet-20-51.ibnet
comet-20-53.ibnet
comet-20-54.ibnet
18/04/04 15:51:53 INFO namenode.NameNode: STARTUP_MSG: 
/************************************************************
STARTUP_MSG: Starting NameNode
STARTUP_MSG:   host = comet-20-04.sdsc.edu/198.202.119.83
STARTUP_MSG:   args = [-format]
STARTUP_MSG:   version = 2.6.0
STARTUP_MSG:   classpath = /home/cochung/cometcluster:/opt/hadoop/2.6.0/share/hadoop/common/lib/curator-client-2.6.0.jar:/opt/hadoop/2.6.0/share/hadoop/common/lib/curator-framework-2.6.0.jar:/opt/hadoop/2.6.0/share/hadoop/common/lib/commons-collections-3.2.1.jar:/opt/hadoop/2.6.0/share/hadoop/common/lib/commons-logging-1.1.3.jar:/opt/hadoop/2.6.0/share/hadoop/common/lib/jaxb-impl-2.2.3-1.jar:/opt/hadoop/2.6.0/share/hadoop/common/lib/jersey-server-1.9.jar:/opt/hadoop/2.6.0/share/hadoop/common/lib/paranamer-2.3.jar:/opt/hadoop/2.6.0/share/hadoop/common/lib/hadoop-auth-2.6.0.jar:/opt/hadoop/2.6.0/share/hadoop/common/lib/apacheds-kerberos-codec-2.0.0-M15.jar:/opt/hadoop/2.6.0/share/hadoop/common/lib/gson-2.2.4.jar:/opt/hadoop/2.6.0/share/hadoop/common/lib/curator-recipes-2.6.0.jar:/opt/hadoop/2.6.0/share/hadoop/common/lib/apacheds-i18n-2.0.0-M15.jar:/opt/hadoop/2.6.0/share/hadoop/common/lib/asm-3.2.jar:/opt/hadoop/2.6.0/share/hadoop/common/lib/junit-4.11.jar:/opt/hadoop/2.6.0/share/hadoop/common/lib/jsch-0.1.42.jar:/opt/hadoop/2.6.0/share/hadoop/common/lib/commons-io-2.4.jar:/opt/hadoop/2.6.0/share/hadoop/common/lib/commons-lang-2.6.jar:/opt/hadoop/2.6.0/share/hadoop/common/lib/jasper-compiler-5.5.23.jar:/opt/hadoop/2.6.0/share/hadoop/common/lib/zookeeper-3.4.6.jar:/opt/hadoop/2.6.0/share/hadoop/common/lib/api-util-1.0.0-M20.jar:/opt/hadoop/2.6.0/share/hadoop/common/lib/commons-digester-1.8.jar:/opt/hadoop/2.6.0/share/hadoop/common/lib/protobuf-java-2.5.0.jar:/opt/hadoop/2.6.0/share/hadoop/common/lib/xz-1.0.jar:/opt/hadoop/2.6.0/share/hadoop/common/lib/avro-1.7.4.jar:/opt/hadoop/2.6.0/share/hadoop/common/lib/commons-cli-1.2.jar:/opt/hadoop/2.6.0/share/hadoop/common/lib/httpcore-4.2.5.jar:/opt/hadoop/2.6.0/share/hadoop/common/lib/xmlenc-0.52.jar:/opt/hadoop/2.6.0/share/hadoop/common/lib/commons-beanutils-1.7.0.jar:/opt/hadoop/2.6.0/share/hadoop/common/lib/commons-httpclient-3.1.jar:/opt/hadoop/2.6.0/share/hadoop/common/lib/hamcrest-core-1.3.jar:/opt/hadoop/2.6.0/share/hadoop/common/lib/commons-math3-3.1.1.jar:/opt/hadoop/2.6.0/share/hadoop/common/lib/stax-api-1.0-2.jar:/opt/hadoop/2.6.0/share/hadoop/common/lib/jasper-runtime-5.5.23.jar:/opt/hadoop/2.6.0/share/hadoop/common/lib/commons-beanutils-core-1.8.0.jar:/opt/hadoop/2.6.0/share/hadoop/common/lib/jettison-1.1.jar:/opt/hadoop/2.6.0/share/hadoop/common/lib/slf4j-log4j12-1.7.5.jar:/opt/hadoop/2.6.0/share/hadoop/common/lib/snappy-java-1.0.4.1.jar:/opt/hadoop/2.6.0/share/hadoop/common/lib/commons-el-1.0.jar:/opt/hadoop/2.6.0/share/hadoop/common/lib/commons-compress-1.4.1.jar:/opt/hadoop/2.6.0/share/hadoop/common/lib/jackson-xc-1.9.13.jar:/opt/hadoop/2.6.0/share/hadoop/common/lib/java-xmlbuilder-0.4.jar:/opt/hadoop/2.6.0/share/hadoop/common/lib/jaxb-api-2.2.2.jar:/opt/hadoop/2.6.0/share/hadoop/common/lib/htrace-core-3.0.4.jar:/opt/hadoop/2.6.0/share/hadoop/common/lib/jackson-mapper-asl-1.9.13.jar:/opt/hadoop/2.6.0/share/hadoop/common/lib/activation-1.1.jar:/opt/hadoop/2.6.0/share/hadoop/common/lib/guava-11.0.2.jar:/opt/hadoop/2.6.0/share/hadoop/common/lib/jersey-json-1.9.jar:/opt/hadoop/2.6.0/share/hadoop/common/lib/netty-3.6.2.Final.jar:/opt/hadoop/2.6.0/share/hadoop/common/lib/jetty-util-6.1.26.jar:/opt/hadoop/2.6.0/share/hadoop/common/lib/commons-configuration-1.6.jar:/opt/hadoop/2.6.0/share/hadoop/common/lib/commons-codec-1.4.jar:/opt/hadoop/2.6.0/share/hadoop/common/lib/slf4j-api-1.7.5.jar:/opt/hadoop/2.6.0/share/hadoop/common/lib/commons-net-3.1.jar:/opt/hadoop/2.6.0/share/hadoop/common/lib/httpclient-4.2.5.jar:/opt/hadoop/2.6.0/share/hadoop/common/lib/api-asn1-api-1.0.0-M20.jar:/opt/hadoop/2.6.0/share/hadoop/common/lib/servlet-api-2.5.jar:/opt/hadoop/2.6.0/share/hadoop/common/lib/jsp-api-2.1.jar:/opt/hadoop/2.6.0/share/hadoop/common/lib/jets3t-0.9.0.jar:/opt/hadoop/2.6.0/share/hadoop/common/lib/log4j-1.2.17.jar:/opt/hadoop/2.6.0/share/hadoop/common/lib/jackson-jaxrs-1.9.13.jar:/opt/hadoop/2.6.0/share/hadoop/common/lib/jackson-core-asl-1.9.13.jar:/opt/hadoop/2.6.0/share/hadoop/common/lib/mockito-all-1.8.5.jar:/opt/hadoop/2.6.0/share/hadoop/common/lib/jersey-core-1.9.jar:/opt/hadoop/2.6.0/share/hadoop/common/lib/jsr305-1.3.9.jar:/opt/hadoop/2.6.0/share/hadoop/common/lib/jetty-6.1.26.jar:/opt/hadoop/2.6.0/share/hadoop/common/lib/hadoop-annotations-2.6.0.jar:/opt/hadoop/2.6.0/share/hadoop/common/hadoop-common-2.6.0-tests.jar:/opt/hadoop/2.6.0/share/hadoop/common/hadoop-nfs-2.6.0.jar:/opt/hadoop/2.6.0/share/hadoop/common/hadoop-common-2.6.0.jar:/opt/hadoop/2.6.0/share/hadoop/hdfs:/opt/hadoop/2.6.0/share/hadoop/hdfs/lib/commons-logging-1.1.3.jar:/opt/hadoop/2.6.0/share/hadoop/hdfs/lib/jersey-server-1.9.jar:/opt/hadoop/2.6.0/share/hadoop/hdfs/lib/xml-apis-1.3.04.jar:/opt/hadoop/2.6.0/share/hadoop/hdfs/lib/asm-3.2.jar:/opt/hadoop/2.6.0/share/hadoop/hdfs/lib/commons-io-2.4.jar:/opt/hadoop/2.6.0/share/hadoop/hdfs/lib/commons-lang-2.6.jar:/opt/hadoop/2.6.0/share/hadoop/hdfs/lib/protobuf-java-2.5.0.jar:/opt/hadoop/2.6.0/share/hadoop/hdfs/lib/commons-cli-1.2.jar:/opt/hadoop/2.6.0/share/hadoop/hdfs/lib/xmlenc-0.52.jar:/opt/hadoop/2.6.0/share/hadoop/hdfs/lib/jasper-runtime-5.5.23.jar:/opt/hadoop/2.6.0/share/hadoop/hdfs/lib/commons-daemon-1.0.13.jar:/opt/hadoop/2.6.0/share/hadoop/hdfs/lib/commons-el-1.0.jar:/opt/hadoop/2.6.0/share/hadoop/hdfs/lib/htrace-core-3.0.4.jar:/opt/hadoop/2.6.0/share/hadoop/hdfs/lib/jackson-mapper-asl-1.9.13.jar:/opt/hadoop/2.6.0/share/hadoop/hdfs/lib/guava-11.0.2.jar:/opt/hadoop/2.6.0/share/hadoop/hdfs/lib/netty-3.6.2.Final.jar:/opt/hadoop/2.6.0/share/hadoop/hdfs/lib/xercesImpl-2.9.1.jar:/opt/hadoop/2.6.0/share/hadoop/hdfs/lib/jetty-util-6.1.26.jar:/opt/hadoop/2.6.0/share/hadoop/hdfs/lib/commons-codec-1.4.jar:/opt/hadoop/2.6.0/share/hadoop/hdfs/lib/servlet-api-2.5.jar:/opt/hadoop/2.6.0/share/hadoop/hdfs/lib/jsp-api-2.1.jar:/opt/hadoop/2.6.0/share/hadoop/hdfs/lib/log4j-1.2.17.jar:/opt/hadoop/2.6.0/share/hadoop/hdfs/lib/jackson-core-asl-1.9.13.jar:/opt/hadoop/2.6.0/share/hadoop/hdfs/lib/jersey-core-1.9.jar:/opt/hadoop/2.6.0/share/hadoop/hdfs/lib/jsr305-1.3.9.jar:/opt/hadoop/2.6.0/share/hadoop/hdfs/lib/jetty-6.1.26.jar:/opt/hadoop/2.6.0/share/hadoop/hdfs/hadoop-hdfs-2.6.0.jar:/opt/hadoop/2.6.0/share/hadoop/hdfs/hadoop-hdfs-nfs-2.6.0.jar:/opt/hadoop/2.6.0/share/hadoop/hdfs/hadoop-hdfs-2.6.0-tests.jar:/opt/hadoop/2.6.0/share/hadoop/yarn/lib/aopalliance-1.0.jar:/opt/hadoop/2.6.0/share/hadoop/yarn/lib/guice-servlet-3.0.jar:/opt/hadoop/2.6.0/share/hadoop/yarn/lib/commons-collections-3.2.1.jar:/opt/hadoop/2.6.0/share/hadoop/yarn/lib/commons-logging-1.1.3.jar:/opt/hadoop/2.6.0/share/hadoop/yarn/lib/jaxb-impl-2.2.3-1.jar:/opt/hadoop/2.6.0/share/hadoop/yarn/lib/leveldbjni-all-1.8.jar:/opt/hadoop/2.6.0/share/hadoop/yarn/lib/jersey-server-1.9.jar:/opt/hadoop/2.6.0/share/hadoop/yarn/lib/asm-3.2.jar:/opt/hadoop/2.6.0/share/hadoop/yarn/lib/commons-io-2.4.jar:/opt/hadoop/2.6.0/share/hadoop/yarn/lib/commons-lang-2.6.jar:/opt/hadoop/2.6.0/share/hadoop/yarn/lib/zookeeper-3.4.6.jar:/opt/hadoop/2.6.0/share/hadoop/yarn/lib/protobuf-java-2.5.0.jar:/opt/hadoop/2.6.0/share/hadoop/yarn/lib/xz-1.0.jar:/opt/hadoop/2.6.0/share/hadoop/yarn/lib/commons-cli-1.2.jar:/opt/hadoop/2.6.0/share/hadoop/yarn/lib/jline-0.9.94.jar:/opt/hadoop/2.6.0/share/hadoop/yarn/lib/commons-httpclient-3.1.jar:/opt/hadoop/2.6.0/share/hadoop/yarn/lib/stax-api-1.0-2.jar:/opt/hadoop/2.6.0/share/hadoop/yarn/lib/jettison-1.1.jar:/opt/hadoop/2.6.0/share/hadoop/yarn/lib/javax.inject-1.jar:/opt/hadoop/2.6.0/share/hadoop/yarn/lib/commons-compress-1.4.1.jar:/opt/hadoop/2.6.0/share/hadoop/yarn/lib/jackson-xc-1.9.13.jar:/opt/hadoop/2.6.0/share/hadoop/yarn/lib/jaxb-api-2.2.2.jar:/opt/hadoop/2.6.0/share/hadoop/yarn/lib/guice-3.0.jar:/opt/hadoop/2.6.0/share/hadoop/yarn/lib/jackson-mapper-asl-1.9.13.jar:/opt/hadoop/2.6.0/share/hadoop/yarn/lib/activation-1.1.jar:/opt/hadoop/2.6.0/share/hadoop/yarn/lib/guava-11.0.2.jar:/opt/hadoop/2.6.0/share/hadoop/yarn/lib/jersey-json-1.9.jar:/opt/hadoop/2.6.0/share/hadoop/yarn/lib/netty-3.6.2.Final.jar:/opt/hadoop/2.6.0/share/hadoop/yarn/lib/jetty-util-6.1.26.jar:/opt/hadoop/2.6.0/share/hadoop/yarn/lib/commons-codec-1.4.jar:/opt/hadoop/2.6.0/share/hadoop/yarn/lib/servlet-api-2.5.jar:/opt/hadoop/2.6.0/share/hadoop/yarn/lib/jersey-client-1.9.jar:/opt/hadoop/2.6.0/share/hadoop/yarn/lib/log4j-1.2.17.jar:/opt/hadoop/2.6.0/share/hadoop/yarn/lib/jackson-jaxrs-1.9.13.jar:/opt/hadoop/2.6.0/share/hadoop/yarn/lib/jackson-core-asl-1.9.13.jar:/opt/hadoop/2.6.0/share/hadoop/yarn/lib/jersey-core-1.9.jar:/opt/hadoop/2.6.0/share/hadoop/yarn/lib/jsr305-1.3.9.jar:/opt/hadoop/2.6.0/share/hadoop/yarn/lib/jetty-6.1.26.jar:/opt/hadoop/2.6.0/share/hadoop/yarn/lib/jersey-guice-1.9.jar:/opt/hadoop/2.6.0/share/hadoop/yarn/hadoop-yarn-server-resourcemanager-2.6.0.jar:/opt/hadoop/2.6.0/share/hadoop/yarn/hadoop-yarn-server-common-2.6.0.jar:/opt/hadoop/2.6.0/share/hadoop/yarn/hadoop-yarn-api-2.6.0.jar:/opt/hadoop/2.6.0/share/hadoop/yarn/hadoop-yarn-applications-unmanaged-am-launcher-2.6.0.jar:/opt/hadoop/2.6.0/share/hadoop/yarn/hadoop-yarn-server-applicationhistoryservice-2.6.0.jar:/opt/hadoop/2.6.0/share/hadoop/yarn/hadoop-yarn-applications-distributedshell-2.6.0.jar:/opt/hadoop/2.6.0/share/hadoop/yarn/hadoop-yarn-registry-2.6.0.jar:/opt/hadoop/2.6.0/share/hadoop/yarn/hadoop-yarn-server-web-proxy-2.6.0.jar:/opt/hadoop/2.6.0/share/hadoop/yarn/hadoop-yarn-server-tests-2.6.0.jar:/opt/hadoop/2.6.0/share/hadoop/yarn/hadoop-yarn-server-nodemanager-2.6.0.jar:/opt/hadoop/2.6.0/share/hadoop/yarn/hadoop-yarn-common-2.6.0.jar:/opt/hadoop/2.6.0/share/hadoop/yarn/hadoop-yarn-client-2.6.0.jar:/opt/hadoop/2.6.0/share/hadoop/mapreduce/lib/aopalliance-1.0.jar:/opt/hadoop/2.6.0/share/hadoop/mapreduce/lib/guice-servlet-3.0.jar:/opt/hadoop/2.6.0/share/hadoop/mapreduce/lib/leveldbjni-all-1.8.jar:/opt/hadoop/2.6.0/share/hadoop/mapreduce/lib/jersey-server-1.9.jar:/opt/hadoop/2.6.0/share/hadoop/mapreduce/lib/paranamer-2.3.jar:/opt/hadoop/2.6.0/share/hadoop/mapreduce/lib/asm-3.2.jar:/opt/hadoop/2.6.0/share/hadoop/mapreduce/lib/junit-4.11.jar:/opt/hadoop/2.6.0/share/hadoop/mapreduce/lib/commons-io-2.4.jar:/opt/hadoop/2.6.0/share/hadoop/mapreduce/lib/protobuf-java-2.5.0.jar:/opt/hadoop/2.6.0/share/hadoop/mapreduce/lib/xz-1.0.jar:/opt/hadoop/2.6.0/share/hadoop/mapreduce/lib/avro-1.7.4.jar:/opt/hadoop/2.6.0/share/hadoop/mapreduce/lib/hamcrest-core-1.3.jar:/opt/hadoop/2.6.0/share/hadoop/mapreduce/lib/snappy-java-1.0.4.1.jar:/opt/hadoop/2.6.0/share/hadoop/mapreduce/lib/javax.inject-1.jar:/opt/hadoop/2.6.0/share/hadoop/mapreduce/lib/commons-compress-1.4.1.jar:/opt/hadoop/2.6.0/share/hadoop/mapreduce/lib/guice-3.0.jar:/opt/hadoop/2.6.0/share/hadoop/mapreduce/lib/jackson-mapper-asl-1.9.13.jar:/opt/hadoop/2.6.0/share/hadoop/mapreduce/lib/netty-3.6.2.Final.jar:/opt/hadoop/2.6.0/share/hadoop/mapreduce/lib/log4j-1.2.17.jar:/opt/hadoop/2.6.0/share/hadoop/mapreduce/lib/jackson-core-asl-1.9.13.jar:/opt/hadoop/2.6.0/share/hadoop/mapreduce/lib/jersey-core-1.9.jar:/opt/hadoop/2.6.0/share/hadoop/mapreduce/lib/hadoop-annotations-2.6.0.jar:/opt/hadoop/2.6.0/share/hadoop/mapreduce/lib/jersey-guice-1.9.jar:/opt/hadoop/2.6.0/share/hadoop/mapreduce/hadoop-mapreduce-client-hs-plugins-2.6.0.jar:/opt/hadoop/2.6.0/share/hadoop/mapreduce/hadoop-mapreduce-examples-2.6.0.jar:/opt/hadoop/2.6.0/share/hadoop/mapreduce/hadoop-mapreduce-client-jobclient-2.6.0-tests.jar:/opt/hadoop/2.6.0/share/hadoop/mapreduce/hadoop-mapreduce-client-hs-2.6.0.jar:/opt/hadoop/2.6.0/share/hadoop/mapreduce/hadoop-mapreduce-client-core-2.6.0.jar:/opt/hadoop/2.6.0/share/hadoop/mapreduce/hadoop-mapreduce-client-app-2.6.0.jar:/opt/hadoop/2.6.0/share/hadoop/mapreduce/hadoop-mapreduce-client-jobclient-2.6.0.jar:/opt/hadoop/2.6.0/share/hadoop/mapreduce/hadoop-mapreduce-client-shuffle-2.6.0.jar:/opt/hadoop/2.6.0/share/hadoop/mapreduce/hadoop-mapreduce-client-common-2.6.0.jar:/opt/hadoop/2.6.0/contrib/capacity-scheduler/*.jar
STARTUP_MSG:   build = https://git-wip-us.apache.org/repos/asf/hadoop.git -r e3496499ecb8d220fba99dc5ed4c99c8f9e33bb1; compiled by 'jenkins' on 2014-11-13T21:10Z
STARTUP_MSG:   java = 1.8.0_60
************************************************************/
18/04/04 15:51:53 INFO namenode.NameNode: registered UNIX signal handlers for [TERM, HUP, INT]
18/04/04 15:51:53 INFO namenode.NameNode: createNameNode [-format]
18/04/04 15:51:53 WARN util.NativeCodeLoader: Unable to load native-hadoop library for your platform... using builtin-java classes where applicable
18/04/04 15:51:53 WARN common.Util: Path /scratch/cochung/15397918/namenode_data should be specified as a URI in configuration files. Please update hdfs configuration.
18/04/04 15:51:53 WARN common.Util: Path /scratch/cochung/15397918/namenode_data should be specified as a URI in configuration files. Please update hdfs configuration.
Formatting using clusterid: CID-89ea9ba9-b103-40d5-90e7-79de7b1e19a8
18/04/04 15:51:53 INFO namenode.FSNamesystem: No KeyProvider found.
18/04/04 15:51:53 INFO namenode.FSNamesystem: fsLock is fair:true
18/04/04 15:51:53 INFO blockmanagement.DatanodeManager: dfs.block.invalidate.limit=1000
18/04/04 15:51:53 INFO blockmanagement.DatanodeManager: dfs.namenode.datanode.registration.ip-hostname-check=true
18/04/04 15:51:53 INFO blockmanagement.BlockManager: dfs.namenode.startup.delay.block.deletion.sec is set to 000:00:00:00.000
18/04/04 15:51:53 INFO blockmanagement.BlockManager: The block deletion will start around 2018 Apr 04 15:51:53
18/04/04 15:51:53 INFO util.GSet: Computing capacity for map BlocksMap
18/04/04 15:51:53 INFO util.GSet: VM type       = 64-bit
18/04/04 15:51:53 INFO util.GSet: 2.0% max memory 958.5 MB = 19.2 MB
18/04/04 15:51:53 INFO util.GSet: capacity      = 2^21 = 2097152 entries
18/04/04 15:51:53 INFO blockmanagement.BlockManager: dfs.block.access.token.enable=false
18/04/04 15:51:53 INFO blockmanagement.BlockManager: defaultReplication         = 3
18/04/04 15:51:53 INFO blockmanagement.BlockManager: maxReplication             = 512
18/04/04 15:51:53 INFO blockmanagement.BlockManager: minReplication             = 1
18/04/04 15:51:53 INFO blockmanagement.BlockManager: maxReplicationStreams      = 2
18/04/04 15:51:53 INFO blockmanagement.BlockManager: shouldCheckForEnoughRacks  = false
18/04/04 15:51:53 INFO blockmanagement.BlockManager: replicationRecheckInterval = 3000
18/04/04 15:51:53 INFO blockmanagement.BlockManager: encryptDataTransfer        = false
18/04/04 15:51:53 INFO blockmanagement.BlockManager: maxNumBlocksToLog          = 1000
18/04/04 15:51:53 INFO namenode.FSNamesystem: fsOwner             = cochung (auth:SIMPLE)
18/04/04 15:51:53 INFO namenode.FSNamesystem: supergroup          = supergroup
18/04/04 15:51:53 INFO namenode.FSNamesystem: isPermissionEnabled = true
18/04/04 15:51:53 INFO namenode.FSNamesystem: HA Enabled: false
18/04/04 15:51:53 INFO namenode.FSNamesystem: Append Enabled: true
18/04/04 15:51:53 INFO util.GSet: Computing capacity for map INodeMap
18/04/04 15:51:53 INFO util.GSet: VM type       = 64-bit
18/04/04 15:51:53 INFO util.GSet: 1.0% max memory 958.5 MB = 9.6 MB
18/04/04 15:51:53 INFO util.GSet: capacity      = 2^20 = 1048576 entries
18/04/04 15:51:53 INFO namenode.NameNode: Caching file names occuring more than 10 times
18/04/04 15:51:53 INFO util.GSet: Computing capacity for map cachedBlocks
18/04/04 15:51:53 INFO util.GSet: VM type       = 64-bit
18/04/04 15:51:53 INFO util.GSet: 0.25% max memory 958.5 MB = 2.4 MB
18/04/04 15:51:53 INFO util.GSet: capacity      = 2^18 = 262144 entries
18/04/04 15:51:53 INFO namenode.FSNamesystem: dfs.namenode.safemode.threshold-pct = 0.9990000128746033
18/04/04 15:51:53 INFO namenode.FSNamesystem: dfs.namenode.safemode.min.datanodes = 0
18/04/04 15:51:53 INFO namenode.FSNamesystem: dfs.namenode.safemode.extension     = 30000
18/04/04 15:51:53 INFO namenode.FSNamesystem: Retry cache on namenode is enabled
18/04/04 15:51:53 INFO namenode.FSNamesystem: Retry cache will use 0.03 of total heap and retry cache entry expiry time is 600000 millis
18/04/04 15:51:53 INFO util.GSet: Computing capacity for map NameNodeRetryCache
18/04/04 15:51:53 INFO util.GSet: VM type       = 64-bit
18/04/04 15:51:53 INFO util.GSet: 0.029999999329447746% max memory 958.5 MB = 294.5 KB
18/04/04 15:51:53 INFO util.GSet: capacity      = 2^15 = 32768 entries
18/04/04 15:51:53 INFO namenode.NNConf: ACLs enabled? false
18/04/04 15:51:53 INFO namenode.NNConf: XAttrs enabled? true
18/04/04 15:51:53 INFO namenode.NNConf: Maximum size of an xattr: 16384
18/04/04 15:51:53 INFO namenode.FSImage: Allocated new BlockPoolId: BP-1798110511-198.202.119.83-1522882313690
18/04/04 15:51:53 INFO common.Storage: Storage directory /scratch/cochung/15397918/namenode_data has been successfully formatted.
18/04/04 15:51:53 INFO namenode.NNStorageRetentionManager: Going to retain 1 images with txid >= 0
18/04/04 15:51:53 INFO util.ExitUtil: Exiting with status 0
18/04/04 15:51:53 INFO namenode.NameNode: SHUTDOWN_MSG: 
/************************************************************
SHUTDOWN_MSG: Shutting down NameNode at comet-20-04.sdsc.edu/198.202.119.83
************************************************************/
This script is Deprecated. Instead use start-dfs.sh and start-yarn.sh
18/04/04 15:51:54 WARN util.NativeCodeLoader: Unable to load native-hadoop library for your platform... using builtin-java classes where applicable
Starting namenodes on [comet-20-04.ibnet]
comet-20-04.ibnet: starting namenode, logging to /scratch/cochung/15397918/logs/hadoop-cochung-namenode-comet-20-04.sdsc.edu.out
comet-20-04.ibnet: starting datanode, logging to /scratch/cochung/15397918/logs/hadoop-cochung-datanode-comet-20-04.sdsc.edu.out
comet-20-51.ibnet: starting datanode, logging to /scratch/cochung/15397918/logs/hadoop-cochung-datanode-comet-20-51.sdsc.edu.out
comet-20-50.ibnet: starting datanode, logging to /scratch/cochung/15397918/logs/hadoop-cochung-datanode-comet-20-50.sdsc.edu.out
comet-20-54.ibnet: starting datanode, logging to /scratch/cochung/15397918/logs/hadoop-cochung-datanode-comet-20-54.sdsc.edu.out
comet-20-49.ibnet: starting datanode, logging to /scratch/cochung/15397918/logs/hadoop-cochung-datanode-comet-20-49.sdsc.edu.out
comet-20-53.ibnet: starting datanode, logging to /scratch/cochung/15397918/logs/hadoop-cochung-datanode-comet-20-53.sdsc.edu.out
comet-20-24.ibnet: starting datanode, logging to /scratch/cochung/15397918/logs/hadoop-cochung-datanode-comet-20-24.sdsc.edu.out
comet-20-44.ibnet: starting datanode, logging to /scratch/cochung/15397918/logs/hadoop-cochung-datanode-comet-20-44.sdsc.edu.out
Starting secondary namenodes [comet-20-04.ibnet]
comet-20-04.ibnet: starting secondarynamenode, logging to /scratch/cochung/15397918/logs/hadoop-cochung-secondarynamenode-comet-20-04.sdsc.edu.out
18/04/04 15:52:10 WARN util.NativeCodeLoader: Unable to load native-hadoop library for your platform... using builtin-java classes where applicable
starting yarn daemons
starting resourcemanager, logging to /scratch/cochung/15397918/logs/yarn-cochung-resourcemanager-comet-20-04.out
comet-20-04.ibnet: starting nodemanager, logging to /scratch/cochung/15397918/logs/yarn-cochung-nodemanager-comet-20-04.sdsc.edu.out
comet-20-53.ibnet: starting nodemanager, logging to /scratch/cochung/15397918/logs/yarn-cochung-nodemanager-comet-20-53.sdsc.edu.out
comet-20-24.ibnet: starting nodemanager, logging to /scratch/cochung/15397918/logs/yarn-cochung-nodemanager-comet-20-24.sdsc.edu.out
comet-20-50.ibnet: starting nodemanager, logging to /scratch/cochung/15397918/logs/yarn-cochung-nodemanager-comet-20-50.sdsc.edu.out
comet-20-44.ibnet: starting nodemanager, logging to /scratch/cochung/15397918/logs/yarn-cochung-nodemanager-comet-20-44.sdsc.edu.out
comet-20-51.ibnet: starting nodemanager, logging to /scratch/cochung/15397918/logs/yarn-cochung-nodemanager-comet-20-51.sdsc.edu.out
comet-20-54.ibnet: starting nodemanager, logging to /scratch/cochung/15397918/logs/yarn-cochung-nodemanager-comet-20-54.sdsc.edu.out
comet-20-49.ibnet: starting nodemanager, logging to /scratch/cochung/15397918/logs/yarn-cochung-nodemanager-comet-20-49.sdsc.edu.out
18/04/04 15:52:13 WARN util.NativeCodeLoader: Unable to load native-hadoop library for your platform... using builtin-java classes where applicable
debuginfo: algorithm: 2  nodes:17 cores:10 node 100000 edges 3162277 1000000 
Configuration: core-default.xml, core-site.xml
parameters: 
2
100000
3162277
1000000
/user/cochung/input/input.0/part-r-00000
elapsedtime:test_init:0.933
18/04/04 15:52:15 WARN util.NativeCodeLoader: Unable to load native-hadoop library for your platform... using builtin-java classes where applicable
elapsedtime:test_write:8.003
JobEdgeCount    /user/cochung/input/input.0/part-r-00000    /user/cochung/input/input.0.count
18/04/04 15:52:23 INFO client.RMProxy: Connecting to ResourceManager at comet-20-04.ibnet/10.22.250.235:8032
18/04/04 15:52:23 INFO input.FileInputFormat: Total input paths to process : 1
18/04/04 15:52:24 INFO mapreduce.JobSubmitter: number of splits:1
18/04/04 15:52:24 INFO mapreduce.JobSubmitter: Submitting tokens for job: job_1522882331371_0001
18/04/04 15:52:24 INFO impl.YarnClientImpl: Submitted application application_1522882331371_0001
18/04/04 15:52:24 INFO mapreduce.Job: The url to track the job: http://comet-20-04.ibnet:8088/proxy/application_1522882331371_0001/
18/04/04 15:52:24 INFO mapreduce.Job: Running job: job_1522882331371_0001
18/04/04 15:52:29 INFO mapreduce.Job: Job job_1522882331371_0001 running in uber mode : false
18/04/04 15:52:29 INFO mapreduce.Job:  map 0% reduce 0%
18/04/04 15:52:38 INFO mapreduce.Job:  map 100% reduce 0%
18/04/04 15:52:44 INFO mapreduce.Job:  map 100% reduce 100%
18/04/04 15:52:45 INFO mapreduce.Job: Job job_1522882331371_0001 completed successfully
18/04/04 15:52:45 INFO mapreduce.Job: Counters: 49
	File System Counters
		FILE: Number of bytes read=101192882
		FILE: Number of bytes written=152396767
		FILE: Number of read operations=0
		FILE: Number of large read operations=0
		FILE: Number of write operations=0
		HDFS: Number of bytes read=80054333
		HDFS: Number of bytes written=8
		HDFS: Number of read operations=6
		HDFS: Number of large read operations=0
		HDFS: Number of write operations=2
	Job Counters 
		Launched map tasks=1
		Launched reduce tasks=1
		Rack-local map tasks=1
		Total time spent by all maps in occupied slots (ms)=6610
		Total time spent by all reduces in occupied slots (ms)=4262
		Total time spent by all map tasks (ms)=6610
		Total time spent by all reduce tasks (ms)=4262
		Total vcore-seconds taken by all map tasks=6610
		Total vcore-seconds taken by all reduce tasks=4262
		Total megabyte-seconds taken by all map tasks=6768640
		Total megabyte-seconds taken by all reduce tasks=4364288
	Map-Reduce Framework
		Map input records=3162277
		Map output records=3162277
		Map output bytes=44271878
		Map output materialized bytes=50596438
		Input split bytes=135
		Combine input records=0
		Combine output records=0
		Reduce input groups=1
		Reduce shuffle bytes=50596438
		Reduce input records=3162277
		Reduce output records=1
		Spilled Records=9486831
		Shuffled Maps =1
		Failed Shuffles=0
		Merged Map outputs=1
		GC time elapsed (ms)=95
		CPU time spent (ms)=9240
		Physical memory (bytes) snapshot=469061632
		Virtual memory (bytes) snapshot=4340203520
		Total committed heap usage (bytes)=345505792
	Shuffle Errors
		BAD_ID=0
		CONNECTION=0
		IO_ERROR=0
		WRONG_LENGTH=0
		WRONG_MAP=0
		WRONG_REDUCE=0
	File Input Format Counters 
		Bytes Read=80054198
	File Output Format Counters 
		Bytes Written=8
elapsedtime:edgeCount:22.441
readPath:   /user/cochung/input/input.0.count
num:        3162277
divide!!!!!!!!!!!!
JobEdgePartitioner  /user/cochung/input/input.0/part-r-00000    /user/cochung/input/input.1.partitioner
18/04/04 15:52:45 INFO client.RMProxy: Connecting to ResourceManager at comet-20-04.ibnet/10.22.250.235:8032
18/04/04 15:52:45 INFO input.FileInputFormat: Total input paths to process : 1
18/04/04 15:52:45 INFO mapreduce.JobSubmitter: number of splits:1
18/04/04 15:52:45 INFO mapreduce.JobSubmitter: Submitting tokens for job: job_1522882331371_0002
18/04/04 15:52:46 INFO impl.YarnClientImpl: Submitted application application_1522882331371_0002
18/04/04 15:52:46 INFO mapreduce.Job: The url to track the job: http://comet-20-04.ibnet:8088/proxy/application_1522882331371_0002/
18/04/04 15:52:46 INFO mapreduce.Job: Running job: job_1522882331371_0002
18/04/04 15:52:50 INFO mapreduce.Job: Job job_1522882331371_0002 running in uber mode : false
18/04/04 15:52:50 INFO mapreduce.Job:  map 0% reduce 0%
18/04/04 15:53:00 INFO mapreduce.Job:  map 77% reduce 0%
18/04/04 15:53:01 INFO mapreduce.Job:  map 100% reduce 0%
18/04/04 15:53:08 INFO mapreduce.Job:  map 100% reduce 100%
18/04/04 15:53:09 INFO mapreduce.Job: Job job_1522882331371_0002 completed successfully
18/04/04 15:53:09 INFO mapreduce.Job: Counters: 49
	File System Counters
		FILE: Number of bytes read=198068812
		FILE: Number of bytes written=297616653
		FILE: Number of read operations=0
		FILE: Number of large read operations=0
		FILE: Number of write operations=0
		HDFS: Number of bytes read=80054333
		HDFS: Number of bytes written=9840641
		HDFS: Number of read operations=15
		HDFS: Number of large read operations=0
		HDFS: Number of write operations=8
	Job Counters 
		Launched map tasks=1
		Launched reduce tasks=4
		Rack-local map tasks=1
		Total time spent by all maps in occupied slots (ms)=8854
		Total time spent by all reduces in occupied slots (ms)=20446
		Total time spent by all map tasks (ms)=8854
		Total time spent by all reduce tasks (ms)=20446
		Total vcore-seconds taken by all map tasks=8854
		Total vcore-seconds taken by all reduce tasks=20446
		Total megabyte-seconds taken by all map tasks=9066496
		Total megabyte-seconds taken by all reduce tasks=20936704
	Map-Reduce Framework
		Map input records=3162277
		Map output records=3162277
		Map output bytes=92703306
		Map output materialized bytes=99027884
		Input split bytes=135
		Combine input records=0
		Combine output records=0
		Reduce input groups=4
		Reduce shuffle bytes=99027884
		Reduce input records=3162277
		Reduce output records=399992
		Spilled Records=9486831
		Shuffled Maps =4
		Failed Shuffles=0
		Merged Map outputs=4
		GC time elapsed (ms)=2800
		CPU time spent (ms)=71370
		Physical memory (bytes) snapshot=1272246272
		Virtual memory (bytes) snapshot=10865635328
		Total committed heap usage (bytes)=782761984
	Shuffle Errors
		BAD_ID=0
		CONNECTION=0
		IO_ERROR=0
		WRONG_LENGTH=0
		WRONG_MAP=0
		WRONG_REDUCE=0
	File Input Format Counters 
		Bytes Read=80054198
	File Output Format Counters 
		Bytes Written=9840641
elapsedtime:edgePartitioner:23.276
JobEdgeCount    /user/cochung/input/input.1.partitioner    /user/cochung/input/input.2.count
18/04/04 15:53:09 INFO client.RMProxy: Connecting to ResourceManager at comet-20-04.ibnet/10.22.250.235:8032
18/04/04 15:53:09 INFO input.FileInputFormat: Total input paths to process : 4
18/04/04 15:53:09 INFO mapreduce.JobSubmitter: number of splits:4
18/04/04 15:53:09 INFO mapreduce.JobSubmitter: Submitting tokens for job: job_1522882331371_0003
18/04/04 15:53:09 INFO impl.YarnClientImpl: Submitted application application_1522882331371_0003
18/04/04 15:53:09 INFO mapreduce.Job: The url to track the job: http://comet-20-04.ibnet:8088/proxy/application_1522882331371_0003/
18/04/04 15:53:09 INFO mapreduce.Job: Running job: job_1522882331371_0003
18/04/04 15:53:13 INFO mapreduce.Job: Job job_1522882331371_0003 running in uber mode : false
18/04/04 15:53:13 INFO mapreduce.Job:  map 0% reduce 0%
18/04/04 15:53:17 INFO mapreduce.Job:  map 100% reduce 0%
18/04/04 15:53:23 INFO mapreduce.Job:  map 100% reduce 100%
18/04/04 15:53:23 INFO mapreduce.Job: Job job_1522882331371_0003 completed successfully
18/04/04 15:53:23 INFO mapreduce.Job: Counters: 50
	File System Counters
		FILE: Number of bytes read=6399878
		FILE: Number of bytes written=13330809
		FILE: Number of read operations=0
		FILE: Number of large read operations=0
		FILE: Number of write operations=0
		HDFS: Number of bytes read=9841229
		HDFS: Number of bytes written=7
		HDFS: Number of read operations=15
		HDFS: Number of large read operations=0
		HDFS: Number of write operations=2
	Job Counters 
		Launched map tasks=4
		Launched reduce tasks=1
		Data-local map tasks=3
		Rack-local map tasks=1
		Total time spent by all maps in occupied slots (ms)=8331
		Total time spent by all reduces in occupied slots (ms)=2537
		Total time spent by all map tasks (ms)=8331
		Total time spent by all reduce tasks (ms)=2537
		Total vcore-seconds taken by all map tasks=8331
		Total vcore-seconds taken by all reduce tasks=2537
		Total megabyte-seconds taken by all map tasks=8530944
		Total megabyte-seconds taken by all reduce tasks=2597888
	Map-Reduce Framework
		Map input records=399992
		Map output records=399992
		Map output bytes=5599888
		Map output materialized bytes=6399896
		Input split bytes=588
		Combine input records=0
		Combine output records=0
		Reduce input groups=1
		Reduce shuffle bytes=6399896
		Reduce input records=399992
		Reduce output records=1
		Spilled Records=799984
		Shuffled Maps =4
		Failed Shuffles=0
		Merged Map outputs=4
		GC time elapsed (ms)=234
		CPU time spent (ms)=7060
		Physical memory (bytes) snapshot=1323053056
		Virtual memory (bytes) snapshot=10835451904
		Total committed heap usage (bytes)=924319744
	Shuffle Errors
		BAD_ID=0
		CONNECTION=0
		IO_ERROR=0
		WRONG_LENGTH=0
		WRONG_MAP=0
		WRONG_REDUCE=0
	File Input Format Counters 
		Bytes Read=9840641
	File Output Format Counters 
		Bytes Written=7
elapsedtime:edgeCount:14.224
readPath:   /user/cochung/input/input.2.count
num:        399992
readPath:   /user/cochung/input/input.1.partitioner
mstListSize: 99998
elapsedtime:MST:60.495
This script is Deprecated. Instead use stop-dfs.sh and stop-yarn.sh
18/04/04 15:53:24 WARN util.NativeCodeLoader: Unable to load native-hadoop library for your platform... using builtin-java classes where applicable
Stopping namenodes on [comet-20-04.ibnet]
comet-20-04.ibnet: stopping namenode
comet-20-53.ibnet: stopping datanode
comet-20-44.ibnet: stopping datanode
comet-20-50.ibnet: stopping datanode
comet-20-04.ibnet: stopping datanode
comet-20-24.ibnet: stopping datanode
comet-20-51.ibnet: stopping datanode
comet-20-54.ibnet: stopping datanode
comet-20-49.ibnet: stopping datanode
Stopping secondary namenodes [comet-20-04.ibnet]
comet-20-04.ibnet: stopping secondarynamenode
18/04/04 15:53:42 WARN util.NativeCodeLoader: Unable to load native-hadoop library for your platform... using builtin-java classes where applicable
stopping yarn daemons
stopping resourcemanager
comet-20-24.ibnet: stopping nodemanager
comet-20-24.ibnet: nodemanager did not stop gracefully after 5 seconds: killing with kill -9
comet-20-04.ibnet: stopping nodemanager
comet-20-04.ibnet: nodemanager did not stop gracefully after 5 seconds: killing with kill -9
comet-20-50.ibnet: stopping nodemanager
comet-20-50.ibnet: nodemanager did not stop gracefully after 5 seconds: killing with kill -9
comet-20-44.ibnet: stopping nodemanager
comet-20-44.ibnet: nodemanager did not stop gracefully after 5 seconds: killing with kill -9
comet-20-51.ibnet: stopping nodemanager
comet-20-53.ibnet: stopping nodemanager
comet-20-53.ibnet: nodemanager did not stop gracefully after 5 seconds: killing with kill -9
comet-20-54.ibnet: stopping nodemanager
comet-20-54.ibnet: nodemanager did not stop gracefully after 5 seconds: killing with kill -9
comet-20-49.ibnet: stopping nodemanager
no proxyserver to stop
Copying Hadoop logs back to /home/cochung/cometcluster/logs...
`/scratch/cochung/15397918/logs' -> `/home/cochung/cometcluster/logs'
`/scratch/cochung/15397918/logs/userlogs' -> `/home/cochung/cometcluster/logs/userlogs'
`/scratch/cochung/15397918/logs/userlogs/application_1522882331371_0003' -> `/home/cochung/cometcluster/logs/userlogs/application_1522882331371_0003'
`/scratch/cochung/15397918/logs/userlogs/application_1522882331371_0003/container_1522882331371_0003_01_000005' -> `/home/cochung/cometcluster/logs/userlogs/application_1522882331371_0003/container_1522882331371_0003_01_000005'
`/scratch/cochung/15397918/logs/userlogs/application_1522882331371_0003/container_1522882331371_0003_01_000005/stdout' -> `/home/cochung/cometcluster/logs/userlogs/application_1522882331371_0003/container_1522882331371_0003_01_000005/stdout'
`/scratch/cochung/15397918/logs/userlogs/application_1522882331371_0003/container_1522882331371_0003_01_000005/syslog' -> `/home/cochung/cometcluster/logs/userlogs/application_1522882331371_0003/container_1522882331371_0003_01_000005/syslog'
`/scratch/cochung/15397918/logs/userlogs/application_1522882331371_0003/container_1522882331371_0003_01_000005/stderr' -> `/home/cochung/cometcluster/logs/userlogs/application_1522882331371_0003/container_1522882331371_0003_01_000005/stderr'
`/scratch/cochung/15397918/logs/userlogs/application_1522882331371_0003/container_1522882331371_0003_01_000004' -> `/home/cochung/cometcluster/logs/userlogs/application_1522882331371_0003/container_1522882331371_0003_01_000004'
`/scratch/cochung/15397918/logs/userlogs/application_1522882331371_0003/container_1522882331371_0003_01_000004/stderr' -> `/home/cochung/cometcluster/logs/userlogs/application_1522882331371_0003/container_1522882331371_0003_01_000004/stderr'
`/scratch/cochung/15397918/logs/userlogs/application_1522882331371_0003/container_1522882331371_0003_01_000004/stdout' -> `/home/cochung/cometcluster/logs/userlogs/application_1522882331371_0003/container_1522882331371_0003_01_000004/stdout'
`/scratch/cochung/15397918/logs/userlogs/application_1522882331371_0003/container_1522882331371_0003_01_000004/syslog' -> `/home/cochung/cometcluster/logs/userlogs/application_1522882331371_0003/container_1522882331371_0003_01_000004/syslog'
`/scratch/cochung/15397918/logs/userlogs/application_1522882331371_0002' -> `/home/cochung/cometcluster/logs/userlogs/application_1522882331371_0002'
`/scratch/cochung/15397918/logs/userlogs/application_1522882331371_0002/container_1522882331371_0002_01_000003' -> `/home/cochung/cometcluster/logs/userlogs/application_1522882331371_0002/container_1522882331371_0002_01_000003'
`/scratch/cochung/15397918/logs/userlogs/application_1522882331371_0002/container_1522882331371_0002_01_000003/stderr' -> `/home/cochung/cometcluster/logs/userlogs/application_1522882331371_0002/container_1522882331371_0002_01_000003/stderr'
`/scratch/cochung/15397918/logs/userlogs/application_1522882331371_0002/container_1522882331371_0002_01_000003/stdout' -> `/home/cochung/cometcluster/logs/userlogs/application_1522882331371_0002/container_1522882331371_0002_01_000003/stdout'
`/scratch/cochung/15397918/logs/userlogs/application_1522882331371_0002/container_1522882331371_0002_01_000003/syslog' -> `/home/cochung/cometcluster/logs/userlogs/application_1522882331371_0002/container_1522882331371_0002_01_000003/syslog'
`/scratch/cochung/15397918/logs/SecurityAuth-cochung.audit' -> `/home/cochung/cometcluster/logs/SecurityAuth-cochung.audit'
`/scratch/cochung/15397918/logs/yarn-cochung-resourcemanager-comet-20-04.out' -> `/home/cochung/cometcluster/logs/yarn-cochung-resourcemanager-comet-20-04.out'
`/scratch/cochung/15397918/logs/hadoop-cochung-namenode-comet-20-04.sdsc.edu.out' -> `/home/cochung/cometcluster/logs/hadoop-cochung-namenode-comet-20-04.sdsc.edu.out'
`/scratch/cochung/15397918/logs/yarn-cochung-nodemanager-comet-20-04.sdsc.edu.out' -> `/home/cochung/cometcluster/logs/yarn-cochung-nodemanager-comet-20-04.sdsc.edu.out'
`/scratch/cochung/15397918/logs/hadoop-cochung-datanode-comet-20-04.sdsc.edu.out' -> `/home/cochung/cometcluster/logs/hadoop-cochung-datanode-comet-20-04.sdsc.edu.out'
`/scratch/cochung/15397918/logs/hadoop-cochung-secondarynamenode-comet-20-04.sdsc.edu.out' -> `/home/cochung/cometcluster/logs/hadoop-cochung-secondarynamenode-comet-20-04.sdsc.edu.out'
`/scratch/cochung/15397918/logs/hadoop-cochung-datanode-comet-20-04.sdsc.edu.log' -> `/home/cochung/cometcluster/logs/hadoop-cochung-datanode-comet-20-04.sdsc.edu.log'
`/scratch/cochung/15397918/logs/hadoop-cochung-secondarynamenode-comet-20-04.sdsc.edu.log' -> `/home/cochung/cometcluster/logs/hadoop-cochung-secondarynamenode-comet-20-04.sdsc.edu.log'
`/scratch/cochung/15397918/logs/yarn-cochung-nodemanager-comet-20-04.sdsc.edu.log' -> `/home/cochung/cometcluster/logs/yarn-cochung-nodemanager-comet-20-04.sdsc.edu.log'
`/scratch/cochung/15397918/logs/hadoop-cochung-namenode-comet-20-04.sdsc.edu.log' -> `/home/cochung/cometcluster/logs/hadoop-cochung-namenode-comet-20-04.sdsc.edu.log'
`/scratch/cochung/15397918/logs/yarn-cochung-resourcemanager-comet-20-04.log' -> `/home/cochung/cometcluster/logs/yarn-cochung-resourcemanager-comet-20-04.log'
removed directory: `/scratch/cochung/15397918/mapred_scratch/filecache'
removed directory: `/scratch/cochung/15397918/mapred_scratch/usercache/cochung/filecache'
removed directory: `/scratch/cochung/15397918/mapred_scratch/usercache/cochung/appcache'
removed directory: `/scratch/cochung/15397918/mapred_scratch/usercache/cochung'
removed directory: `/scratch/cochung/15397918/mapred_scratch/usercache'
removed directory: `/scratch/cochung/15397918/mapred_scratch/nmPrivate'
removed directory: `/scratch/cochung/15397918/mapred_scratch'
removed `/scratch/cochung/15397918/tmp/dfs/namesecondary/current/VERSION'
removed `/scratch/cochung/15397918/tmp/dfs/namesecondary/current/fsimage_0000000000000000160'
removed `/scratch/cochung/15397918/tmp/dfs/namesecondary/current/fsimage_0000000000000000000.md5'
removed `/scratch/cochung/15397918/tmp/dfs/namesecondary/current/fsimage_0000000000000000000'
removed `/scratch/cochung/15397918/tmp/dfs/namesecondary/current/fsimage_0000000000000000160.md5'
removed `/scratch/cochung/15397918/tmp/dfs/namesecondary/current/edits_0000000000000000001-0000000000000000160'
removed directory: `/scratch/cochung/15397918/tmp/dfs/namesecondary/current'
removed directory: `/scratch/cochung/15397918/tmp/dfs/namesecondary'
removed directory: `/scratch/cochung/15397918/tmp/dfs'
removed directory: `/scratch/cochung/15397918/tmp'
removed `/scratch/cochung/15397918/namenode_data/current/fsimage_0000000000000000000.md5'
removed `/scratch/cochung/15397918/namenode_data/current/edits_0000000000000000001-0000000000000000160'
removed `/scratch/cochung/15397918/namenode_data/current/fsimage_0000000000000000160'
removed `/scratch/cochung/15397918/namenode_data/current/VERSION'
removed `/scratch/cochung/15397918/namenode_data/current/edits_inprogress_0000000000000000161'
removed `/scratch/cochung/15397918/namenode_data/current/fsimage_0000000000000000000'
removed `/scratch/cochung/15397918/namenode_data/current/fsimage_0000000000000000160.md5'
removed `/scratch/cochung/15397918/namenode_data/current/seen_txid'
removed directory: `/scratch/cochung/15397918/namenode_data/current'
removed directory: `/scratch/cochung/15397918/namenode_data'
removed `/scratch/cochung/15397918/hdfs_data/current/VERSION'
removed `/scratch/cochung/15397918/hdfs_data/current/BP-1798110511-198.202.119.83-1522882313690/dncp_block_verification.log.prev'
removed `/scratch/cochung/15397918/hdfs_data/current/BP-1798110511-198.202.119.83-1522882313690/current/finalized/subdir0/subdir0/blk_1073741846'
removed `/scratch/cochung/15397918/hdfs_data/current/BP-1798110511-198.202.119.83-1522882313690/current/finalized/subdir0/subdir0/blk_1073741844_1020.meta'
removed `/scratch/cochung/15397918/hdfs_data/current/BP-1798110511-198.202.119.83-1522882313690/current/finalized/subdir0/subdir0/blk_1073741833_1009.meta'
removed `/scratch/cochung/15397918/hdfs_data/current/BP-1798110511-198.202.119.83-1522882313690/current/finalized/subdir0/subdir0/blk_1073741850_1026.meta'
removed `/scratch/cochung/15397918/hdfs_data/current/BP-1798110511-198.202.119.83-1522882313690/current/finalized/subdir0/subdir0/blk_1073741849_1025.meta'
removed `/scratch/cochung/15397918/hdfs_data/current/BP-1798110511-198.202.119.83-1522882313690/current/finalized/subdir0/subdir0/blk_1073741825'
removed `/scratch/cochung/15397918/hdfs_data/current/BP-1798110511-198.202.119.83-1522882313690/current/finalized/subdir0/subdir0/blk_1073741852'
removed `/scratch/cochung/15397918/hdfs_data/current/BP-1798110511-198.202.119.83-1522882313690/current/finalized/subdir0/subdir0/blk_1073741834_1010.meta'
removed `/scratch/cochung/15397918/hdfs_data/current/BP-1798110511-198.202.119.83-1522882313690/current/finalized/subdir0/subdir0/blk_1073741851'
removed `/scratch/cochung/15397918/hdfs_data/current/BP-1798110511-198.202.119.83-1522882313690/current/finalized/subdir0/subdir0/blk_1073741851_1027.meta'
removed `/scratch/cochung/15397918/hdfs_data/current/BP-1798110511-198.202.119.83-1522882313690/current/finalized/subdir0/subdir0/blk_1073741853_1029.meta'
removed `/scratch/cochung/15397918/hdfs_data/current/BP-1798110511-198.202.119.83-1522882313690/current/finalized/subdir0/subdir0/blk_1073741853'
removed `/scratch/cochung/15397918/hdfs_data/current/BP-1798110511-198.202.119.83-1522882313690/current/finalized/subdir0/subdir0/blk_1073741849'
removed `/scratch/cochung/15397918/hdfs_data/current/BP-1798110511-198.202.119.83-1522882313690/current/finalized/subdir0/subdir0/blk_1073741834'
removed `/scratch/cochung/15397918/hdfs_data/current/BP-1798110511-198.202.119.83-1522882313690/current/finalized/subdir0/subdir0/blk_1073741846_1022.meta'
removed `/scratch/cochung/15397918/hdfs_data/current/BP-1798110511-198.202.119.83-1522882313690/current/finalized/subdir0/subdir0/blk_1073741850'
removed `/scratch/cochung/15397918/hdfs_data/current/BP-1798110511-198.202.119.83-1522882313690/current/finalized/subdir0/subdir0/blk_1073741844'
removed `/scratch/cochung/15397918/hdfs_data/current/BP-1798110511-198.202.119.83-1522882313690/current/finalized/subdir0/subdir0/blk_1073741833'
removed `/scratch/cochung/15397918/hdfs_data/current/BP-1798110511-198.202.119.83-1522882313690/current/finalized/subdir0/subdir0/blk_1073741852_1028.meta'
removed `/scratch/cochung/15397918/hdfs_data/current/BP-1798110511-198.202.119.83-1522882313690/current/finalized/subdir0/subdir0/blk_1073741825_1001.meta'
removed directory: `/scratch/cochung/15397918/hdfs_data/current/BP-1798110511-198.202.119.83-1522882313690/current/finalized/subdir0/subdir0'
removed directory: `/scratch/cochung/15397918/hdfs_data/current/BP-1798110511-198.202.119.83-1522882313690/current/finalized/subdir0'
removed directory: `/scratch/cochung/15397918/hdfs_data/current/BP-1798110511-198.202.119.83-1522882313690/current/finalized'
removed `/scratch/cochung/15397918/hdfs_data/current/BP-1798110511-198.202.119.83-1522882313690/current/VERSION'
removed directory: `/scratch/cochung/15397918/hdfs_data/current/BP-1798110511-198.202.119.83-1522882313690/current/rbw'
removed `/scratch/cochung/15397918/hdfs_data/current/BP-1798110511-198.202.119.83-1522882313690/current/dfsUsed'
removed directory: `/scratch/cochung/15397918/hdfs_data/current/BP-1798110511-198.202.119.83-1522882313690/current'
removed directory: `/scratch/cochung/15397918/hdfs_data/current/BP-1798110511-198.202.119.83-1522882313690/tmp'
removed `/scratch/cochung/15397918/hdfs_data/current/BP-1798110511-198.202.119.83-1522882313690/dncp_block_verification.log.curr'
removed directory: `/scratch/cochung/15397918/hdfs_data/current/BP-1798110511-198.202.119.83-1522882313690'
removed directory: `/scratch/cochung/15397918/hdfs_data/current'
removed directory: `/scratch/cochung/15397918/hdfs_data'
removed directory: `/scratch/cochung/15397918/pids'
removed `/scratch/cochung/15397918/logs/userlogs/application_1522882331371_0003/container_1522882331371_0003_01_000005/stdout'
removed `/scratch/cochung/15397918/logs/userlogs/application_1522882331371_0003/container_1522882331371_0003_01_000005/syslog'
removed `/scratch/cochung/15397918/logs/userlogs/application_1522882331371_0003/container_1522882331371_0003_01_000005/stderr'
removed directory: `/scratch/cochung/15397918/logs/userlogs/application_1522882331371_0003/container_1522882331371_0003_01_000005'
removed `/scratch/cochung/15397918/logs/userlogs/application_1522882331371_0003/container_1522882331371_0003_01_000004/stderr'
removed `/scratch/cochung/15397918/logs/userlogs/application_1522882331371_0003/container_1522882331371_0003_01_000004/stdout'
removed `/scratch/cochung/15397918/logs/userlogs/application_1522882331371_0003/container_1522882331371_0003_01_000004/syslog'
removed directory: `/scratch/cochung/15397918/logs/userlogs/application_1522882331371_0003/container_1522882331371_0003_01_000004'
removed directory: `/scratch/cochung/15397918/logs/userlogs/application_1522882331371_0003'
removed `/scratch/cochung/15397918/logs/userlogs/application_1522882331371_0002/container_1522882331371_0002_01_000003/stderr'
removed `/scratch/cochung/15397918/logs/userlogs/application_1522882331371_0002/container_1522882331371_0002_01_000003/stdout'
removed `/scratch/cochung/15397918/logs/userlogs/application_1522882331371_0002/container_1522882331371_0002_01_000003/syslog'
removed directory: `/scratch/cochung/15397918/logs/userlogs/application_1522882331371_0002/container_1522882331371_0002_01_000003'
removed directory: `/scratch/cochung/15397918/logs/userlogs/application_1522882331371_0002'
removed directory: `/scratch/cochung/15397918/logs/userlogs'
removed `/scratch/cochung/15397918/logs/SecurityAuth-cochung.audit'
removed `/scratch/cochung/15397918/logs/yarn-cochung-resourcemanager-comet-20-04.out'
removed `/scratch/cochung/15397918/logs/hadoop-cochung-namenode-comet-20-04.sdsc.edu.out'
removed `/scratch/cochung/15397918/logs/yarn-cochung-nodemanager-comet-20-04.sdsc.edu.out'
removed `/scratch/cochung/15397918/logs/hadoop-cochung-datanode-comet-20-04.sdsc.edu.out'
removed `/scratch/cochung/15397918/logs/hadoop-cochung-secondarynamenode-comet-20-04.sdsc.edu.out'
removed `/scratch/cochung/15397918/logs/hadoop-cochung-datanode-comet-20-04.sdsc.edu.log'
removed `/scratch/cochung/15397918/logs/hadoop-cochung-secondarynamenode-comet-20-04.sdsc.edu.log'
removed `/scratch/cochung/15397918/logs/yarn-cochung-nodemanager-comet-20-04.sdsc.edu.log'
removed `/scratch/cochung/15397918/logs/hadoop-cochung-namenode-comet-20-04.sdsc.edu.log'
removed `/scratch/cochung/15397918/logs/yarn-cochung-resourcemanager-comet-20-04.log'
removed directory: `/scratch/cochung/15397918/logs'
removed directory: `/scratch/cochung/15397918/mapred_scratch/usercache/cochung/appcache'
removed directory: `/scratch/cochung/15397918/mapred_scratch/usercache/cochung/filecache'
removed directory: `/scratch/cochung/15397918/mapred_scratch/usercache/cochung'
removed directory: `/scratch/cochung/15397918/mapred_scratch/usercache'
removed directory: `/scratch/cochung/15397918/mapred_scratch/nmPrivate'
removed directory: `/scratch/cochung/15397918/mapred_scratch/filecache'
removed directory: `/scratch/cochung/15397918/mapred_scratch'
removed `/scratch/cochung/15397918/hdfs_data/current/VERSION'
removed `/scratch/cochung/15397918/hdfs_data/current/BP-1798110511-198.202.119.83-1522882313690/dncp_block_verification.log.prev'
removed directory: `/scratch/cochung/15397918/hdfs_data/current/BP-1798110511-198.202.119.83-1522882313690/tmp'
removed `/scratch/cochung/15397918/hdfs_data/current/BP-1798110511-198.202.119.83-1522882313690/dncp_block_verification.log.curr'
removed `/scratch/cochung/15397918/hdfs_data/current/BP-1798110511-198.202.119.83-1522882313690/current/VERSION'
removed `/scratch/cochung/15397918/hdfs_data/current/BP-1798110511-198.202.119.83-1522882313690/current/finalized/subdir0/subdir0/blk_1073741849'
removed `/scratch/cochung/15397918/hdfs_data/current/BP-1798110511-198.202.119.83-1522882313690/current/finalized/subdir0/subdir0/blk_1073741850'
removed `/scratch/cochung/15397918/hdfs_data/current/BP-1798110511-198.202.119.83-1522882313690/current/finalized/subdir0/subdir0/blk_1073741846_1022.meta'
removed `/scratch/cochung/15397918/hdfs_data/current/BP-1798110511-198.202.119.83-1522882313690/current/finalized/subdir0/subdir0/blk_1073741858_1034.meta'
removed `/scratch/cochung/15397918/hdfs_data/current/BP-1798110511-198.202.119.83-1522882313690/current/finalized/subdir0/subdir0/blk_1073741847_1023.meta'
removed `/scratch/cochung/15397918/hdfs_data/current/BP-1798110511-198.202.119.83-1522882313690/current/finalized/subdir0/subdir0/blk_1073741855_1031.meta'
removed `/scratch/cochung/15397918/hdfs_data/current/BP-1798110511-198.202.119.83-1522882313690/current/finalized/subdir0/subdir0/blk_1073741847'
removed `/scratch/cochung/15397918/hdfs_data/current/BP-1798110511-198.202.119.83-1522882313690/current/finalized/subdir0/subdir0/blk_1073741832'
removed `/scratch/cochung/15397918/hdfs_data/current/BP-1798110511-198.202.119.83-1522882313690/current/finalized/subdir0/subdir0/blk_1073741845'
removed `/scratch/cochung/15397918/hdfs_data/current/BP-1798110511-198.202.119.83-1522882313690/current/finalized/subdir0/subdir0/blk_1073741848_1024.meta'
removed `/scratch/cochung/15397918/hdfs_data/current/BP-1798110511-198.202.119.83-1522882313690/current/finalized/subdir0/subdir0/blk_1073741845_1021.meta'
removed `/scratch/cochung/15397918/hdfs_data/current/BP-1798110511-198.202.119.83-1522882313690/current/finalized/subdir0/subdir0/blk_1073741832_1008.meta'
removed `/scratch/cochung/15397918/hdfs_data/current/BP-1798110511-198.202.119.83-1522882313690/current/finalized/subdir0/subdir0/blk_1073741848'
removed `/scratch/cochung/15397918/hdfs_data/current/BP-1798110511-198.202.119.83-1522882313690/current/finalized/subdir0/subdir0/blk_1073741846'
removed `/scratch/cochung/15397918/hdfs_data/current/BP-1798110511-198.202.119.83-1522882313690/current/finalized/subdir0/subdir0/blk_1073741855'
removed `/scratch/cochung/15397918/hdfs_data/current/BP-1798110511-198.202.119.83-1522882313690/current/finalized/subdir0/subdir0/blk_1073741858'
removed `/scratch/cochung/15397918/hdfs_data/current/BP-1798110511-198.202.119.83-1522882313690/current/finalized/subdir0/subdir0/blk_1073741849_1025.meta'
removed `/scratch/cochung/15397918/hdfs_data/current/BP-1798110511-198.202.119.83-1522882313690/current/finalized/subdir0/subdir0/blk_1073741850_1026.meta'
removed directory: `/scratch/cochung/15397918/hdfs_data/current/BP-1798110511-198.202.119.83-1522882313690/current/finalized/subdir0/subdir0'
removed directory: `/scratch/cochung/15397918/hdfs_data/current/BP-1798110511-198.202.119.83-1522882313690/current/finalized/subdir0'
removed directory: `/scratch/cochung/15397918/hdfs_data/current/BP-1798110511-198.202.119.83-1522882313690/current/finalized'
removed `/scratch/cochung/15397918/hdfs_data/current/BP-1798110511-198.202.119.83-1522882313690/current/dfsUsed'
removed directory: `/scratch/cochung/15397918/hdfs_data/current/BP-1798110511-198.202.119.83-1522882313690/current/rbw'
removed directory: `/scratch/cochung/15397918/hdfs_data/current/BP-1798110511-198.202.119.83-1522882313690/current'
removed directory: `/scratch/cochung/15397918/hdfs_data/current/BP-1798110511-198.202.119.83-1522882313690'
removed directory: `/scratch/cochung/15397918/hdfs_data/current'
removed directory: `/scratch/cochung/15397918/hdfs_data'
removed directory: `/scratch/cochung/15397918/pids'
removed `/scratch/cochung/15397918/logs/hadoop-cochung-datanode-comet-20-24.sdsc.edu.out'
removed `/scratch/cochung/15397918/logs/yarn-cochung-nodemanager-comet-20-24.sdsc.edu.log'
removed `/scratch/cochung/15397918/logs/SecurityAuth-cochung.audit'
removed `/scratch/cochung/15397918/logs/hadoop-cochung-datanode-comet-20-24.sdsc.edu.log'
removed `/scratch/cochung/15397918/logs/yarn-cochung-nodemanager-comet-20-24.sdsc.edu.out'
removed `/scratch/cochung/15397918/logs/userlogs/application_1522882331371_0001/container_1522882331371_0001_01_000002/syslog'
removed `/scratch/cochung/15397918/logs/userlogs/application_1522882331371_0001/container_1522882331371_0001_01_000002/stdout'
removed `/scratch/cochung/15397918/logs/userlogs/application_1522882331371_0001/container_1522882331371_0001_01_000002/stderr'
removed directory: `/scratch/cochung/15397918/logs/userlogs/application_1522882331371_0001/container_1522882331371_0001_01_000002'
removed directory: `/scratch/cochung/15397918/logs/userlogs/application_1522882331371_0001'
removed `/scratch/cochung/15397918/logs/userlogs/application_1522882331371_0002/container_1522882331371_0002_01_000001/stderr'
removed `/scratch/cochung/15397918/logs/userlogs/application_1522882331371_0002/container_1522882331371_0002_01_000001/syslog'
removed `/scratch/cochung/15397918/logs/userlogs/application_1522882331371_0002/container_1522882331371_0002_01_000001/stdout'
removed directory: `/scratch/cochung/15397918/logs/userlogs/application_1522882331371_0002/container_1522882331371_0002_01_000001'
removed directory: `/scratch/cochung/15397918/logs/userlogs/application_1522882331371_0002'
removed `/scratch/cochung/15397918/logs/userlogs/application_1522882331371_0003/container_1522882331371_0003_01_000006/stderr'
removed `/scratch/cochung/15397918/logs/userlogs/application_1522882331371_0003/container_1522882331371_0003_01_000006/syslog'
removed `/scratch/cochung/15397918/logs/userlogs/application_1522882331371_0003/container_1522882331371_0003_01_000006/stdout'
removed directory: `/scratch/cochung/15397918/logs/userlogs/application_1522882331371_0003/container_1522882331371_0003_01_000006'
removed directory: `/scratch/cochung/15397918/logs/userlogs/application_1522882331371_0003'
removed directory: `/scratch/cochung/15397918/logs/userlogs'
removed directory: `/scratch/cochung/15397918/logs'
removed directory: `/scratch/cochung/15397918/mapred_scratch/nmPrivate'
removed directory: `/scratch/cochung/15397918/mapred_scratch/usercache/cochung/filecache'
removed directory: `/scratch/cochung/15397918/mapred_scratch/usercache/cochung/appcache'
removed directory: `/scratch/cochung/15397918/mapred_scratch/usercache/cochung'
removed directory: `/scratch/cochung/15397918/mapred_scratch/usercache'
removed directory: `/scratch/cochung/15397918/mapred_scratch/filecache'
removed directory: `/scratch/cochung/15397918/mapred_scratch'
removed `/scratch/cochung/15397918/hdfs_data/current/VERSION'
removed `/scratch/cochung/15397918/hdfs_data/current/BP-1798110511-198.202.119.83-1522882313690/dncp_block_verification.log.prev'
removed directory: `/scratch/cochung/15397918/hdfs_data/current/BP-1798110511-198.202.119.83-1522882313690/tmp'
removed `/scratch/cochung/15397918/hdfs_data/current/BP-1798110511-198.202.119.83-1522882313690/dncp_block_verification.log.curr'
removed directory: `/scratch/cochung/15397918/hdfs_data/current/BP-1798110511-198.202.119.83-1522882313690/current/rbw'
removed `/scratch/cochung/15397918/hdfs_data/current/BP-1798110511-198.202.119.83-1522882313690/current/VERSION'
removed `/scratch/cochung/15397918/hdfs_data/current/BP-1798110511-198.202.119.83-1522882313690/current/finalized/subdir0/subdir0/blk_1073741847_1023.meta'
removed `/scratch/cochung/15397918/hdfs_data/current/BP-1798110511-198.202.119.83-1522882313690/current/finalized/subdir0/subdir0/blk_1073741858_1034.meta'
removed `/scratch/cochung/15397918/hdfs_data/current/BP-1798110511-198.202.119.83-1522882313690/current/finalized/subdir0/subdir0/blk_1073741847'
removed `/scratch/cochung/15397918/hdfs_data/current/BP-1798110511-198.202.119.83-1522882313690/current/finalized/subdir0/subdir0/blk_1073741854'
removed `/scratch/cochung/15397918/hdfs_data/current/BP-1798110511-198.202.119.83-1522882313690/current/finalized/subdir0/subdir0/blk_1073741833'
removed `/scratch/cochung/15397918/hdfs_data/current/BP-1798110511-198.202.119.83-1522882313690/current/finalized/subdir0/subdir0/blk_1073741857'
removed `/scratch/cochung/15397918/hdfs_data/current/BP-1798110511-198.202.119.83-1522882313690/current/finalized/subdir0/subdir0/blk_1073741850'
removed `/scratch/cochung/15397918/hdfs_data/current/BP-1798110511-198.202.119.83-1522882313690/current/finalized/subdir0/subdir0/blk_1073741846_1022.meta'
removed `/scratch/cochung/15397918/hdfs_data/current/BP-1798110511-198.202.119.83-1522882313690/current/finalized/subdir0/subdir0/blk_1073741854_1030.meta'
removed `/scratch/cochung/15397918/hdfs_data/current/BP-1798110511-198.202.119.83-1522882313690/current/finalized/subdir0/subdir0/blk_1073741834'
removed `/scratch/cochung/15397918/hdfs_data/current/BP-1798110511-198.202.119.83-1522882313690/current/finalized/subdir0/subdir0/blk_1073741849'
removed `/scratch/cochung/15397918/hdfs_data/current/BP-1798110511-198.202.119.83-1522882313690/current/finalized/subdir0/subdir0/blk_1073741835_1011.meta'
removed `/scratch/cochung/15397918/hdfs_data/current/BP-1798110511-198.202.119.83-1522882313690/current/finalized/subdir0/subdir0/blk_1073741858'
removed `/scratch/cochung/15397918/hdfs_data/current/BP-1798110511-198.202.119.83-1522882313690/current/finalized/subdir0/subdir0/blk_1073741850_1026.meta'
removed `/scratch/cochung/15397918/hdfs_data/current/BP-1798110511-198.202.119.83-1522882313690/current/finalized/subdir0/subdir0/blk_1073741856_1032.meta'
removed `/scratch/cochung/15397918/hdfs_data/current/BP-1798110511-198.202.119.83-1522882313690/current/finalized/subdir0/subdir0/blk_1073741849_1025.meta'
removed `/scratch/cochung/15397918/hdfs_data/current/BP-1798110511-198.202.119.83-1522882313690/current/finalized/subdir0/subdir0/blk_1073741846'
removed `/scratch/cochung/15397918/hdfs_data/current/BP-1798110511-198.202.119.83-1522882313690/current/finalized/subdir0/subdir0/blk_1073741833_1009.meta'
removed `/scratch/cochung/15397918/hdfs_data/current/BP-1798110511-198.202.119.83-1522882313690/current/finalized/subdir0/subdir0/blk_1073741835'
removed `/scratch/cochung/15397918/hdfs_data/current/BP-1798110511-198.202.119.83-1522882313690/current/finalized/subdir0/subdir0/blk_1073741851_1027.meta'
removed `/scratch/cochung/15397918/hdfs_data/current/BP-1798110511-198.202.119.83-1522882313690/current/finalized/subdir0/subdir0/blk_1073741857_1033.meta'
removed `/scratch/cochung/15397918/hdfs_data/current/BP-1798110511-198.202.119.83-1522882313690/current/finalized/subdir0/subdir0/blk_1073741851'
removed `/scratch/cochung/15397918/hdfs_data/current/BP-1798110511-198.202.119.83-1522882313690/current/finalized/subdir0/subdir0/blk_1073741832_1008.meta'
removed `/scratch/cochung/15397918/hdfs_data/current/BP-1798110511-198.202.119.83-1522882313690/current/finalized/subdir0/subdir0/blk_1073741834_1010.meta'
removed `/scratch/cochung/15397918/hdfs_data/current/BP-1798110511-198.202.119.83-1522882313690/current/finalized/subdir0/subdir0/blk_1073741856'
removed `/scratch/cochung/15397918/hdfs_data/current/BP-1798110511-198.202.119.83-1522882313690/current/finalized/subdir0/subdir0/blk_1073741832'
removed directory: `/scratch/cochung/15397918/hdfs_data/current/BP-1798110511-198.202.119.83-1522882313690/current/finalized/subdir0/subdir0'
removed directory: `/scratch/cochung/15397918/hdfs_data/current/BP-1798110511-198.202.119.83-1522882313690/current/finalized/subdir0'
removed directory: `/scratch/cochung/15397918/hdfs_data/current/BP-1798110511-198.202.119.83-1522882313690/current/finalized'
removed `/scratch/cochung/15397918/hdfs_data/current/BP-1798110511-198.202.119.83-1522882313690/current/dfsUsed'
removed directory: `/scratch/cochung/15397918/hdfs_data/current/BP-1798110511-198.202.119.83-1522882313690/current'
removed directory: `/scratch/cochung/15397918/hdfs_data/current/BP-1798110511-198.202.119.83-1522882313690'
removed directory: `/scratch/cochung/15397918/hdfs_data/current'
removed directory: `/scratch/cochung/15397918/hdfs_data'
removed directory: `/scratch/cochung/15397918/pids'
removed `/scratch/cochung/15397918/logs/userlogs/application_1522882331371_0001/container_1522882331371_0001_01_000003/syslog'
removed `/scratch/cochung/15397918/logs/userlogs/application_1522882331371_0001/container_1522882331371_0001_01_000003/stdout'
removed `/scratch/cochung/15397918/logs/userlogs/application_1522882331371_0001/container_1522882331371_0001_01_000003/stderr'
removed directory: `/scratch/cochung/15397918/logs/userlogs/application_1522882331371_0001/container_1522882331371_0001_01_000003'
removed directory: `/scratch/cochung/15397918/logs/userlogs/application_1522882331371_0001'
removed `/scratch/cochung/15397918/logs/userlogs/application_1522882331371_0002/container_1522882331371_0002_01_000002/stderr'
removed `/scratch/cochung/15397918/logs/userlogs/application_1522882331371_0002/container_1522882331371_0002_01_000002/syslog'
removed `/scratch/cochung/15397918/logs/userlogs/application_1522882331371_0002/container_1522882331371_0002_01_000002/stdout'
removed directory: `/scratch/cochung/15397918/logs/userlogs/application_1522882331371_0002/container_1522882331371_0002_01_000002'
removed directory: `/scratch/cochung/15397918/logs/userlogs/application_1522882331371_0002'
removed directory: `/scratch/cochung/15397918/logs/userlogs'
removed `/scratch/cochung/15397918/logs/hadoop-cochung-datanode-comet-20-44.sdsc.edu.out'
removed `/scratch/cochung/15397918/logs/yarn-cochung-nodemanager-comet-20-44.sdsc.edu.log'
removed `/scratch/cochung/15397918/logs/yarn-cochung-nodemanager-comet-20-44.sdsc.edu.out'
removed `/scratch/cochung/15397918/logs/hadoop-cochung-datanode-comet-20-44.sdsc.edu.log'
removed `/scratch/cochung/15397918/logs/SecurityAuth-cochung.audit'
removed directory: `/scratch/cochung/15397918/logs'
removed directory: `/scratch/cochung/15397918/mapred_scratch/nmPrivate'
removed directory: `/scratch/cochung/15397918/mapred_scratch/usercache'
removed directory: `/scratch/cochung/15397918/mapred_scratch/filecache'
removed directory: `/scratch/cochung/15397918/mapred_scratch'
removed `/scratch/cochung/15397918/hdfs_data/current/BP-1798110511-198.202.119.83-1522882313690/dncp_block_verification.log.curr'
removed `/scratch/cochung/15397918/hdfs_data/current/BP-1798110511-198.202.119.83-1522882313690/current/VERSION'
removed `/scratch/cochung/15397918/hdfs_data/current/BP-1798110511-198.202.119.83-1522882313690/current/finalized/subdir0/subdir0/blk_1073741848'
removed `/scratch/cochung/15397918/hdfs_data/current/BP-1798110511-198.202.119.83-1522882313690/current/finalized/subdir0/subdir0/blk_1073741842'
removed `/scratch/cochung/15397918/hdfs_data/current/BP-1798110511-198.202.119.83-1522882313690/current/finalized/subdir0/subdir0/blk_1073741835'
removed `/scratch/cochung/15397918/hdfs_data/current/BP-1798110511-198.202.119.83-1522882313690/current/finalized/subdir0/subdir0/blk_1073741851'
removed `/scratch/cochung/15397918/hdfs_data/current/BP-1798110511-198.202.119.83-1522882313690/current/finalized/subdir0/subdir0/blk_1073741848_1024.meta'
removed `/scratch/cochung/15397918/hdfs_data/current/BP-1798110511-198.202.119.83-1522882313690/current/finalized/subdir0/subdir0/blk_1073741842_1018.meta'
removed `/scratch/cochung/15397918/hdfs_data/current/BP-1798110511-198.202.119.83-1522882313690/current/finalized/subdir0/subdir0/blk_1073741851_1027.meta'
removed `/scratch/cochung/15397918/hdfs_data/current/BP-1798110511-198.202.119.83-1522882313690/current/finalized/subdir0/subdir0/blk_1073741850_1026.meta'
removed `/scratch/cochung/15397918/hdfs_data/current/BP-1798110511-198.202.119.83-1522882313690/current/finalized/subdir0/subdir0/blk_1073741849_1025.meta'
removed `/scratch/cochung/15397918/hdfs_data/current/BP-1798110511-198.202.119.83-1522882313690/current/finalized/subdir0/subdir0/blk_1073741843_1019.meta'
removed `/scratch/cochung/15397918/hdfs_data/current/BP-1798110511-198.202.119.83-1522882313690/current/finalized/subdir0/subdir0/blk_1073741852'
removed `/scratch/cochung/15397918/hdfs_data/current/BP-1798110511-198.202.119.83-1522882313690/current/finalized/subdir0/subdir0/blk_1073741835_1011.meta'
removed `/scratch/cochung/15397918/hdfs_data/current/BP-1798110511-198.202.119.83-1522882313690/current/finalized/subdir0/subdir0/blk_1073741854_1030.meta'
removed `/scratch/cochung/15397918/hdfs_data/current/BP-1798110511-198.202.119.83-1522882313690/current/finalized/subdir0/subdir0/blk_1073741850'
removed `/scratch/cochung/15397918/hdfs_data/current/BP-1798110511-198.202.119.83-1522882313690/current/finalized/subdir0/subdir0/blk_1073741852_1028.meta'
removed `/scratch/cochung/15397918/hdfs_data/current/BP-1798110511-198.202.119.83-1522882313690/current/finalized/subdir0/subdir0/blk_1073741843'
removed `/scratch/cochung/15397918/hdfs_data/current/BP-1798110511-198.202.119.83-1522882313690/current/finalized/subdir0/subdir0/blk_1073741849'
removed `/scratch/cochung/15397918/hdfs_data/current/BP-1798110511-198.202.119.83-1522882313690/current/finalized/subdir0/subdir0/blk_1073741847'
removed `/scratch/cochung/15397918/hdfs_data/current/BP-1798110511-198.202.119.83-1522882313690/current/finalized/subdir0/subdir0/blk_1073741854'
removed `/scratch/cochung/15397918/hdfs_data/current/BP-1798110511-198.202.119.83-1522882313690/current/finalized/subdir0/subdir0/blk_1073741847_1023.meta'
removed directory: `/scratch/cochung/15397918/hdfs_data/current/BP-1798110511-198.202.119.83-1522882313690/current/finalized/subdir0/subdir0'
removed directory: `/scratch/cochung/15397918/hdfs_data/current/BP-1798110511-198.202.119.83-1522882313690/current/finalized/subdir0'
removed directory: `/scratch/cochung/15397918/hdfs_data/current/BP-1798110511-198.202.119.83-1522882313690/current/finalized'
removed directory: `/scratch/cochung/15397918/hdfs_data/current/BP-1798110511-198.202.119.83-1522882313690/current/rbw'
removed `/scratch/cochung/15397918/hdfs_data/current/BP-1798110511-198.202.119.83-1522882313690/current/dfsUsed'
removed directory: `/scratch/cochung/15397918/hdfs_data/current/BP-1798110511-198.202.119.83-1522882313690/current'
removed directory: `/scratch/cochung/15397918/hdfs_data/current/BP-1798110511-198.202.119.83-1522882313690/tmp'
removed `/scratch/cochung/15397918/hdfs_data/current/BP-1798110511-198.202.119.83-1522882313690/dncp_block_verification.log.prev'
removed directory: `/scratch/cochung/15397918/hdfs_data/current/BP-1798110511-198.202.119.83-1522882313690'
removed `/scratch/cochung/15397918/hdfs_data/current/VERSION'
removed directory: `/scratch/cochung/15397918/hdfs_data/current'
removed directory: `/scratch/cochung/15397918/hdfs_data'
removed directory: `/scratch/cochung/15397918/pids'
removed `/scratch/cochung/15397918/logs/hadoop-cochung-datanode-comet-20-49.sdsc.edu.log'
removed `/scratch/cochung/15397918/logs/yarn-cochung-nodemanager-comet-20-49.sdsc.edu.out'
removed directory: `/scratch/cochung/15397918/logs/userlogs'
removed `/scratch/cochung/15397918/logs/hadoop-cochung-datanode-comet-20-49.sdsc.edu.out'
removed `/scratch/cochung/15397918/logs/yarn-cochung-nodemanager-comet-20-49.sdsc.edu.log'
removed `/scratch/cochung/15397918/logs/SecurityAuth-cochung.audit'
removed directory: `/scratch/cochung/15397918/logs'
removed directory: `/scratch/cochung/15397918/mapred_scratch/usercache/cochung/appcache'
removed directory: `/scratch/cochung/15397918/mapred_scratch/usercache/cochung/filecache'
removed directory: `/scratch/cochung/15397918/mapred_scratch/usercache/cochung'
removed directory: `/scratch/cochung/15397918/mapred_scratch/usercache'
removed directory: `/scratch/cochung/15397918/mapred_scratch/nmPrivate'
removed directory: `/scratch/cochung/15397918/mapred_scratch/filecache'
removed directory: `/scratch/cochung/15397918/mapred_scratch'
removed `/scratch/cochung/15397918/hdfs_data/current/VERSION'
removed directory: `/scratch/cochung/15397918/hdfs_data/current/BP-1798110511-198.202.119.83-1522882313690/tmp'
removed `/scratch/cochung/15397918/hdfs_data/current/BP-1798110511-198.202.119.83-1522882313690/dncp_block_verification.log.curr'
removed `/scratch/cochung/15397918/hdfs_data/current/BP-1798110511-198.202.119.83-1522882313690/dncp_block_verification.log.prev'
removed `/scratch/cochung/15397918/hdfs_data/current/BP-1798110511-198.202.119.83-1522882313690/current/finalized/subdir0/subdir0/blk_1073741855_1031.meta'
removed `/scratch/cochung/15397918/hdfs_data/current/BP-1798110511-198.202.119.83-1522882313690/current/finalized/subdir0/subdir0/blk_1073741853'
removed `/scratch/cochung/15397918/hdfs_data/current/BP-1798110511-198.202.119.83-1522882313690/current/finalized/subdir0/subdir0/blk_1073741853_1029.meta'
removed `/scratch/cochung/15397918/hdfs_data/current/BP-1798110511-198.202.119.83-1522882313690/current/finalized/subdir0/subdir0/blk_1073741857'
removed `/scratch/cochung/15397918/hdfs_data/current/BP-1798110511-198.202.119.83-1522882313690/current/finalized/subdir0/subdir0/blk_1073741852_1028.meta'
removed `/scratch/cochung/15397918/hdfs_data/current/BP-1798110511-198.202.119.83-1522882313690/current/finalized/subdir0/subdir0/blk_1073741825_1001.meta'
removed `/scratch/cochung/15397918/hdfs_data/current/BP-1798110511-198.202.119.83-1522882313690/current/finalized/subdir0/subdir0/blk_1073741844'
removed `/scratch/cochung/15397918/hdfs_data/current/BP-1798110511-198.202.119.83-1522882313690/current/finalized/subdir0/subdir0/blk_1073741843'
removed `/scratch/cochung/15397918/hdfs_data/current/BP-1798110511-198.202.119.83-1522882313690/current/finalized/subdir0/subdir0/blk_1073741849'
removed `/scratch/cochung/15397918/hdfs_data/current/BP-1798110511-198.202.119.83-1522882313690/current/finalized/subdir0/subdir0/blk_1073741850'
removed `/scratch/cochung/15397918/hdfs_data/current/BP-1798110511-198.202.119.83-1522882313690/current/finalized/subdir0/subdir0/blk_1073741825'
removed `/scratch/cochung/15397918/hdfs_data/current/BP-1798110511-198.202.119.83-1522882313690/current/finalized/subdir0/subdir0/blk_1073741852'
removed `/scratch/cochung/15397918/hdfs_data/current/BP-1798110511-198.202.119.83-1522882313690/current/finalized/subdir0/subdir0/blk_1073741844_1020.meta'
removed `/scratch/cochung/15397918/hdfs_data/current/BP-1798110511-198.202.119.83-1522882313690/current/finalized/subdir0/subdir0/blk_1073741849_1025.meta'
removed `/scratch/cochung/15397918/hdfs_data/current/BP-1798110511-198.202.119.83-1522882313690/current/finalized/subdir0/subdir0/blk_1073741843_1019.meta'
removed `/scratch/cochung/15397918/hdfs_data/current/BP-1798110511-198.202.119.83-1522882313690/current/finalized/subdir0/subdir0/blk_1073741850_1026.meta'
removed `/scratch/cochung/15397918/hdfs_data/current/BP-1798110511-198.202.119.83-1522882313690/current/finalized/subdir0/subdir0/blk_1073741855'
removed `/scratch/cochung/15397918/hdfs_data/current/BP-1798110511-198.202.119.83-1522882313690/current/finalized/subdir0/subdir0/blk_1073741845_1021.meta'
removed `/scratch/cochung/15397918/hdfs_data/current/BP-1798110511-198.202.119.83-1522882313690/current/finalized/subdir0/subdir0/blk_1073741857_1033.meta'
removed `/scratch/cochung/15397918/hdfs_data/current/BP-1798110511-198.202.119.83-1522882313690/current/finalized/subdir0/subdir0/blk_1073741842'
removed `/scratch/cochung/15397918/hdfs_data/current/BP-1798110511-198.202.119.83-1522882313690/current/finalized/subdir0/subdir0/blk_1073741842_1018.meta'
removed `/scratch/cochung/15397918/hdfs_data/current/BP-1798110511-198.202.119.83-1522882313690/current/finalized/subdir0/subdir0/blk_1073741845'
removed directory: `/scratch/cochung/15397918/hdfs_data/current/BP-1798110511-198.202.119.83-1522882313690/current/finalized/subdir0/subdir0'
removed directory: `/scratch/cochung/15397918/hdfs_data/current/BP-1798110511-198.202.119.83-1522882313690/current/finalized/subdir0'
removed directory: `/scratch/cochung/15397918/hdfs_data/current/BP-1798110511-198.202.119.83-1522882313690/current/finalized'
removed directory: `/scratch/cochung/15397918/hdfs_data/current/BP-1798110511-198.202.119.83-1522882313690/current/rbw'
removed `/scratch/cochung/15397918/hdfs_data/current/BP-1798110511-198.202.119.83-1522882313690/current/VERSION'
removed `/scratch/cochung/15397918/hdfs_data/current/BP-1798110511-198.202.119.83-1522882313690/current/dfsUsed'
removed directory: `/scratch/cochung/15397918/hdfs_data/current/BP-1798110511-198.202.119.83-1522882313690/current'
removed directory: `/scratch/cochung/15397918/hdfs_data/current/BP-1798110511-198.202.119.83-1522882313690'
removed directory: `/scratch/cochung/15397918/hdfs_data/current'
removed directory: `/scratch/cochung/15397918/hdfs_data'
removed directory: `/scratch/cochung/15397918/pids'
removed `/scratch/cochung/15397918/logs/yarn-cochung-nodemanager-comet-20-50.sdsc.edu.out'
removed `/scratch/cochung/15397918/logs/hadoop-cochung-datanode-comet-20-50.sdsc.edu.log'
removed `/scratch/cochung/15397918/logs/hadoop-cochung-datanode-comet-20-50.sdsc.edu.out'
removed `/scratch/cochung/15397918/logs/SecurityAuth-cochung.audit'
removed `/scratch/cochung/15397918/logs/userlogs/application_1522882331371_0002/container_1522882331371_0002_01_000004/stderr'
removed `/scratch/cochung/15397918/logs/userlogs/application_1522882331371_0002/container_1522882331371_0002_01_000004/syslog'
removed `/scratch/cochung/15397918/logs/userlogs/application_1522882331371_0002/container_1522882331371_0002_01_000004/stdout'
removed directory: `/scratch/cochung/15397918/logs/userlogs/application_1522882331371_0002/container_1522882331371_0002_01_000004'
removed directory: `/scratch/cochung/15397918/logs/userlogs/application_1522882331371_0002'
removed directory: `/scratch/cochung/15397918/logs/userlogs'
removed `/scratch/cochung/15397918/logs/yarn-cochung-nodemanager-comet-20-50.sdsc.edu.log'
removed directory: `/scratch/cochung/15397918/logs'
removed directory: `/scratch/cochung/15397918/mapred_scratch/filecache'
removed directory: `/scratch/cochung/15397918/mapred_scratch/nmPrivate'
removed directory: `/scratch/cochung/15397918/mapred_scratch/usercache'
removed directory: `/scratch/cochung/15397918/mapred_scratch'
removed directory: `/scratch/cochung/15397918/hdfs_data/current/BP-1798110511-198.202.119.83-1522882313690/current/rbw'
removed `/scratch/cochung/15397918/hdfs_data/current/BP-1798110511-198.202.119.83-1522882313690/current/finalized/subdir0/subdir0/blk_1073741832'
removed `/scratch/cochung/15397918/hdfs_data/current/BP-1798110511-198.202.119.83-1522882313690/current/finalized/subdir0/subdir0/blk_1073741856'
removed `/scratch/cochung/15397918/hdfs_data/current/BP-1798110511-198.202.119.83-1522882313690/current/finalized/subdir0/subdir0/blk_1073741844'
removed `/scratch/cochung/15397918/hdfs_data/current/BP-1798110511-198.202.119.83-1522882313690/current/finalized/subdir0/subdir0/blk_1073741832_1008.meta'
removed `/scratch/cochung/15397918/hdfs_data/current/BP-1798110511-198.202.119.83-1522882313690/current/finalized/subdir0/subdir0/blk_1073741849'
removed `/scratch/cochung/15397918/hdfs_data/current/BP-1798110511-198.202.119.83-1522882313690/current/finalized/subdir0/subdir0/blk_1073741850'
removed `/scratch/cochung/15397918/hdfs_data/current/BP-1798110511-198.202.119.83-1522882313690/current/finalized/subdir0/subdir0/blk_1073741844_1020.meta'
removed `/scratch/cochung/15397918/hdfs_data/current/BP-1798110511-198.202.119.83-1522882313690/current/finalized/subdir0/subdir0/blk_1073741850_1026.meta'
removed `/scratch/cochung/15397918/hdfs_data/current/BP-1798110511-198.202.119.83-1522882313690/current/finalized/subdir0/subdir0/blk_1073741856_1032.meta'
removed `/scratch/cochung/15397918/hdfs_data/current/BP-1798110511-198.202.119.83-1522882313690/current/finalized/subdir0/subdir0/blk_1073741849_1025.meta'
removed directory: `/scratch/cochung/15397918/hdfs_data/current/BP-1798110511-198.202.119.83-1522882313690/current/finalized/subdir0/subdir0'
removed directory: `/scratch/cochung/15397918/hdfs_data/current/BP-1798110511-198.202.119.83-1522882313690/current/finalized/subdir0'
removed directory: `/scratch/cochung/15397918/hdfs_data/current/BP-1798110511-198.202.119.83-1522882313690/current/finalized'
removed `/scratch/cochung/15397918/hdfs_data/current/BP-1798110511-198.202.119.83-1522882313690/current/dfsUsed'
removed `/scratch/cochung/15397918/hdfs_data/current/BP-1798110511-198.202.119.83-1522882313690/current/VERSION'
removed directory: `/scratch/cochung/15397918/hdfs_data/current/BP-1798110511-198.202.119.83-1522882313690/current'
removed `/scratch/cochung/15397918/hdfs_data/current/BP-1798110511-198.202.119.83-1522882313690/dncp_block_verification.log.prev'
removed `/scratch/cochung/15397918/hdfs_data/current/BP-1798110511-198.202.119.83-1522882313690/dncp_block_verification.log.curr'
removed directory: `/scratch/cochung/15397918/hdfs_data/current/BP-1798110511-198.202.119.83-1522882313690/tmp'
removed directory: `/scratch/cochung/15397918/hdfs_data/current/BP-1798110511-198.202.119.83-1522882313690'
removed `/scratch/cochung/15397918/hdfs_data/current/VERSION'
removed directory: `/scratch/cochung/15397918/hdfs_data/current'
removed directory: `/scratch/cochung/15397918/hdfs_data'
removed directory: `/scratch/cochung/15397918/pids'
removed `/scratch/cochung/15397918/logs/hadoop-cochung-datanode-comet-20-51.sdsc.edu.out'
removed `/scratch/cochung/15397918/logs/yarn-cochung-nodemanager-comet-20-51.sdsc.edu.out'
removed directory: `/scratch/cochung/15397918/logs/userlogs'
removed `/scratch/cochung/15397918/logs/yarn-cochung-nodemanager-comet-20-51.sdsc.edu.log'
removed `/scratch/cochung/15397918/logs/SecurityAuth-cochung.audit'
removed `/scratch/cochung/15397918/logs/hadoop-cochung-datanode-comet-20-51.sdsc.edu.log'
removed directory: `/scratch/cochung/15397918/logs'
removed directory: `/scratch/cochung/15397918/mapred_scratch/filecache'
removed directory: `/scratch/cochung/15397918/mapred_scratch/usercache/cochung/appcache'
removed directory: `/scratch/cochung/15397918/mapred_scratch/usercache/cochung/filecache'
removed directory: `/scratch/cochung/15397918/mapred_scratch/usercache/cochung'
removed directory: `/scratch/cochung/15397918/mapred_scratch/usercache'
removed directory: `/scratch/cochung/15397918/mapred_scratch/nmPrivate'
removed directory: `/scratch/cochung/15397918/mapred_scratch'
removed `/scratch/cochung/15397918/hdfs_data/current/BP-1798110511-198.202.119.83-1522882313690/dncp_block_verification.log.prev'
removed `/scratch/cochung/15397918/hdfs_data/current/BP-1798110511-198.202.119.83-1522882313690/current/VERSION'
removed directory: `/scratch/cochung/15397918/hdfs_data/current/BP-1798110511-198.202.119.83-1522882313690/current/rbw'
removed `/scratch/cochung/15397918/hdfs_data/current/BP-1798110511-198.202.119.83-1522882313690/current/finalized/subdir0/subdir0/blk_1073741833_1009.meta'
removed `/scratch/cochung/15397918/hdfs_data/current/BP-1798110511-198.202.119.83-1522882313690/current/finalized/subdir0/subdir0/blk_1073741834'
removed `/scratch/cochung/15397918/hdfs_data/current/BP-1798110511-198.202.119.83-1522882313690/current/finalized/subdir0/subdir0/blk_1073741849'
removed `/scratch/cochung/15397918/hdfs_data/current/BP-1798110511-198.202.119.83-1522882313690/current/finalized/subdir0/subdir0/blk_1073741849_1025.meta'
removed `/scratch/cochung/15397918/hdfs_data/current/BP-1798110511-198.202.119.83-1522882313690/current/finalized/subdir0/subdir0/blk_1073741856_1032.meta'
removed `/scratch/cochung/15397918/hdfs_data/current/BP-1798110511-198.202.119.83-1522882313690/current/finalized/subdir0/subdir0/blk_1073741850'
removed `/scratch/cochung/15397918/hdfs_data/current/BP-1798110511-198.202.119.83-1522882313690/current/finalized/subdir0/subdir0/blk_1073741850_1026.meta'
removed `/scratch/cochung/15397918/hdfs_data/current/BP-1798110511-198.202.119.83-1522882313690/current/finalized/subdir0/subdir0/blk_1073741857'
removed `/scratch/cochung/15397918/hdfs_data/current/BP-1798110511-198.202.119.83-1522882313690/current/finalized/subdir0/subdir0/blk_1073741833'
removed `/scratch/cochung/15397918/hdfs_data/current/BP-1798110511-198.202.119.83-1522882313690/current/finalized/subdir0/subdir0/blk_1073741835_1011.meta'
removed `/scratch/cochung/15397918/hdfs_data/current/BP-1798110511-198.202.119.83-1522882313690/current/finalized/subdir0/subdir0/blk_1073741834_1010.meta'
removed `/scratch/cochung/15397918/hdfs_data/current/BP-1798110511-198.202.119.83-1522882313690/current/finalized/subdir0/subdir0/blk_1073741853'
removed `/scratch/cochung/15397918/hdfs_data/current/BP-1798110511-198.202.119.83-1522882313690/current/finalized/subdir0/subdir0/blk_1073741854'
removed `/scratch/cochung/15397918/hdfs_data/current/BP-1798110511-198.202.119.83-1522882313690/current/finalized/subdir0/subdir0/blk_1073741857_1033.meta'
removed `/scratch/cochung/15397918/hdfs_data/current/BP-1798110511-198.202.119.83-1522882313690/current/finalized/subdir0/subdir0/blk_1073741842_1018.meta'
removed `/scratch/cochung/15397918/hdfs_data/current/BP-1798110511-198.202.119.83-1522882313690/current/finalized/subdir0/subdir0/blk_1073741856'
removed `/scratch/cochung/15397918/hdfs_data/current/BP-1798110511-198.202.119.83-1522882313690/current/finalized/subdir0/subdir0/blk_1073741853_1029.meta'
removed `/scratch/cochung/15397918/hdfs_data/current/BP-1798110511-198.202.119.83-1522882313690/current/finalized/subdir0/subdir0/blk_1073741855_1031.meta'
removed `/scratch/cochung/15397918/hdfs_data/current/BP-1798110511-198.202.119.83-1522882313690/current/finalized/subdir0/subdir0/blk_1073741858_1034.meta'
removed `/scratch/cochung/15397918/hdfs_data/current/BP-1798110511-198.202.119.83-1522882313690/current/finalized/subdir0/subdir0/blk_1073741842'
removed `/scratch/cochung/15397918/hdfs_data/current/BP-1798110511-198.202.119.83-1522882313690/current/finalized/subdir0/subdir0/blk_1073741835'
removed `/scratch/cochung/15397918/hdfs_data/current/BP-1798110511-198.202.119.83-1522882313690/current/finalized/subdir0/subdir0/blk_1073741854_1030.meta'
removed `/scratch/cochung/15397918/hdfs_data/current/BP-1798110511-198.202.119.83-1522882313690/current/finalized/subdir0/subdir0/blk_1073741855'
removed `/scratch/cochung/15397918/hdfs_data/current/BP-1798110511-198.202.119.83-1522882313690/current/finalized/subdir0/subdir0/blk_1073741858'
removed directory: `/scratch/cochung/15397918/hdfs_data/current/BP-1798110511-198.202.119.83-1522882313690/current/finalized/subdir0/subdir0'
removed directory: `/scratch/cochung/15397918/hdfs_data/current/BP-1798110511-198.202.119.83-1522882313690/current/finalized/subdir0'
removed directory: `/scratch/cochung/15397918/hdfs_data/current/BP-1798110511-198.202.119.83-1522882313690/current/finalized'
removed `/scratch/cochung/15397918/hdfs_data/current/BP-1798110511-198.202.119.83-1522882313690/current/dfsUsed'
removed directory: `/scratch/cochung/15397918/hdfs_data/current/BP-1798110511-198.202.119.83-1522882313690/current'
removed `/scratch/cochung/15397918/hdfs_data/current/BP-1798110511-198.202.119.83-1522882313690/dncp_block_verification.log.curr'
removed directory: `/scratch/cochung/15397918/hdfs_data/current/BP-1798110511-198.202.119.83-1522882313690/tmp'
removed directory: `/scratch/cochung/15397918/hdfs_data/current/BP-1798110511-198.202.119.83-1522882313690'
removed `/scratch/cochung/15397918/hdfs_data/current/VERSION'
removed directory: `/scratch/cochung/15397918/hdfs_data/current'
removed directory: `/scratch/cochung/15397918/hdfs_data'
removed directory: `/scratch/cochung/15397918/pids'
removed `/scratch/cochung/15397918/logs/userlogs/application_1522882331371_0002/container_1522882331371_0002_01_000006/syslog'
removed `/scratch/cochung/15397918/logs/userlogs/application_1522882331371_0002/container_1522882331371_0002_01_000006/stdout'
removed `/scratch/cochung/15397918/logs/userlogs/application_1522882331371_0002/container_1522882331371_0002_01_000006/stderr'
removed directory: `/scratch/cochung/15397918/logs/userlogs/application_1522882331371_0002/container_1522882331371_0002_01_000006'
removed directory: `/scratch/cochung/15397918/logs/userlogs/application_1522882331371_0002'
removed `/scratch/cochung/15397918/logs/userlogs/application_1522882331371_0001/container_1522882331371_0001_01_000001/syslog'
removed `/scratch/cochung/15397918/logs/userlogs/application_1522882331371_0001/container_1522882331371_0001_01_000001/stdout'
removed `/scratch/cochung/15397918/logs/userlogs/application_1522882331371_0001/container_1522882331371_0001_01_000001/stderr'
removed directory: `/scratch/cochung/15397918/logs/userlogs/application_1522882331371_0001/container_1522882331371_0001_01_000001'
removed directory: `/scratch/cochung/15397918/logs/userlogs/application_1522882331371_0001'
removed `/scratch/cochung/15397918/logs/userlogs/application_1522882331371_0003/container_1522882331371_0003_01_000001/stdout'
removed `/scratch/cochung/15397918/logs/userlogs/application_1522882331371_0003/container_1522882331371_0003_01_000001/syslog'
removed `/scratch/cochung/15397918/logs/userlogs/application_1522882331371_0003/container_1522882331371_0003_01_000001/stderr'
removed directory: `/scratch/cochung/15397918/logs/userlogs/application_1522882331371_0003/container_1522882331371_0003_01_000001'
removed directory: `/scratch/cochung/15397918/logs/userlogs/application_1522882331371_0003'
removed directory: `/scratch/cochung/15397918/logs/userlogs'
removed `/scratch/cochung/15397918/logs/yarn-cochung-nodemanager-comet-20-53.sdsc.edu.out'
removed `/scratch/cochung/15397918/logs/hadoop-cochung-datanode-comet-20-53.sdsc.edu.log'
removed `/scratch/cochung/15397918/logs/hadoop-cochung-datanode-comet-20-53.sdsc.edu.out'
removed `/scratch/cochung/15397918/logs/SecurityAuth-cochung.audit'
removed `/scratch/cochung/15397918/logs/yarn-cochung-nodemanager-comet-20-53.sdsc.edu.log'
removed directory: `/scratch/cochung/15397918/logs'
removed directory: `/scratch/cochung/15397918/mapred_scratch/filecache'
removed directory: `/scratch/cochung/15397918/mapred_scratch/usercache/cochung/filecache'
removed directory: `/scratch/cochung/15397918/mapred_scratch/usercache/cochung/appcache'
removed directory: `/scratch/cochung/15397918/mapred_scratch/usercache/cochung'
removed directory: `/scratch/cochung/15397918/mapred_scratch/usercache'
removed directory: `/scratch/cochung/15397918/mapred_scratch/nmPrivate'
removed directory: `/scratch/cochung/15397918/mapred_scratch'
removed `/scratch/cochung/15397918/hdfs_data/current/BP-1798110511-198.202.119.83-1522882313690/dncp_block_verification.log.curr'
removed directory: `/scratch/cochung/15397918/hdfs_data/current/BP-1798110511-198.202.119.83-1522882313690/tmp'
removed `/scratch/cochung/15397918/hdfs_data/current/BP-1798110511-198.202.119.83-1522882313690/dncp_block_verification.log.prev'
removed `/scratch/cochung/15397918/hdfs_data/current/BP-1798110511-198.202.119.83-1522882313690/current/finalized/subdir0/subdir0/blk_1073741845'
removed `/scratch/cochung/15397918/hdfs_data/current/BP-1798110511-198.202.119.83-1522882313690/current/finalized/subdir0/subdir0/blk_1073741848'
removed `/scratch/cochung/15397918/hdfs_data/current/BP-1798110511-198.202.119.83-1522882313690/current/finalized/subdir0/subdir0/blk_1073741825_1001.meta'
removed `/scratch/cochung/15397918/hdfs_data/current/BP-1798110511-198.202.119.83-1522882313690/current/finalized/subdir0/subdir0/blk_1073741825'
removed `/scratch/cochung/15397918/hdfs_data/current/BP-1798110511-198.202.119.83-1522882313690/current/finalized/subdir0/subdir0/blk_1073741850'
removed `/scratch/cochung/15397918/hdfs_data/current/BP-1798110511-198.202.119.83-1522882313690/current/finalized/subdir0/subdir0/blk_1073741843'
removed `/scratch/cochung/15397918/hdfs_data/current/BP-1798110511-198.202.119.83-1522882313690/current/finalized/subdir0/subdir0/blk_1073741849'
removed `/scratch/cochung/15397918/hdfs_data/current/BP-1798110511-198.202.119.83-1522882313690/current/finalized/subdir0/subdir0/blk_1073741850_1026.meta'
removed `/scratch/cochung/15397918/hdfs_data/current/BP-1798110511-198.202.119.83-1522882313690/current/finalized/subdir0/subdir0/blk_1073741849_1025.meta'
removed `/scratch/cochung/15397918/hdfs_data/current/BP-1798110511-198.202.119.83-1522882313690/current/finalized/subdir0/subdir0/blk_1073741843_1019.meta'
removed `/scratch/cochung/15397918/hdfs_data/current/BP-1798110511-198.202.119.83-1522882313690/current/finalized/subdir0/subdir0/blk_1073741848_1024.meta'
removed `/scratch/cochung/15397918/hdfs_data/current/BP-1798110511-198.202.119.83-1522882313690/current/finalized/subdir0/subdir0/blk_1073741845_1021.meta'
removed directory: `/scratch/cochung/15397918/hdfs_data/current/BP-1798110511-198.202.119.83-1522882313690/current/finalized/subdir0/subdir0'
removed directory: `/scratch/cochung/15397918/hdfs_data/current/BP-1798110511-198.202.119.83-1522882313690/current/finalized/subdir0'
removed directory: `/scratch/cochung/15397918/hdfs_data/current/BP-1798110511-198.202.119.83-1522882313690/current/finalized'
removed `/scratch/cochung/15397918/hdfs_data/current/BP-1798110511-198.202.119.83-1522882313690/current/VERSION'
removed directory: `/scratch/cochung/15397918/hdfs_data/current/BP-1798110511-198.202.119.83-1522882313690/current/rbw'
removed `/scratch/cochung/15397918/hdfs_data/current/BP-1798110511-198.202.119.83-1522882313690/current/dfsUsed'
removed directory: `/scratch/cochung/15397918/hdfs_data/current/BP-1798110511-198.202.119.83-1522882313690/current'
removed directory: `/scratch/cochung/15397918/hdfs_data/current/BP-1798110511-198.202.119.83-1522882313690'
removed `/scratch/cochung/15397918/hdfs_data/current/VERSION'
removed directory: `/scratch/cochung/15397918/hdfs_data/current'
removed directory: `/scratch/cochung/15397918/hdfs_data'
removed directory: `/scratch/cochung/15397918/pids'
removed `/scratch/cochung/15397918/logs/SecurityAuth-cochung.audit'
removed `/scratch/cochung/15397918/logs/yarn-cochung-nodemanager-comet-20-54.sdsc.edu.out'
removed `/scratch/cochung/15397918/logs/hadoop-cochung-datanode-comet-20-54.sdsc.edu.out'
removed `/scratch/cochung/15397918/logs/userlogs/application_1522882331371_0002/container_1522882331371_0002_01_000005/stderr'
removed `/scratch/cochung/15397918/logs/userlogs/application_1522882331371_0002/container_1522882331371_0002_01_000005/syslog'
removed `/scratch/cochung/15397918/logs/userlogs/application_1522882331371_0002/container_1522882331371_0002_01_000005/stdout'
removed directory: `/scratch/cochung/15397918/logs/userlogs/application_1522882331371_0002/container_1522882331371_0002_01_000005'
removed directory: `/scratch/cochung/15397918/logs/userlogs/application_1522882331371_0002'
removed `/scratch/cochung/15397918/logs/userlogs/application_1522882331371_0003/container_1522882331371_0003_01_000003/stdout'
removed `/scratch/cochung/15397918/logs/userlogs/application_1522882331371_0003/container_1522882331371_0003_01_000003/syslog'
removed `/scratch/cochung/15397918/logs/userlogs/application_1522882331371_0003/container_1522882331371_0003_01_000003/stderr'
removed directory: `/scratch/cochung/15397918/logs/userlogs/application_1522882331371_0003/container_1522882331371_0003_01_000003'
removed `/scratch/cochung/15397918/logs/userlogs/application_1522882331371_0003/container_1522882331371_0003_01_000002/stderr'
removed `/scratch/cochung/15397918/logs/userlogs/application_1522882331371_0003/container_1522882331371_0003_01_000002/stdout'
removed `/scratch/cochung/15397918/logs/userlogs/application_1522882331371_0003/container_1522882331371_0003_01_000002/syslog'
removed directory: `/scratch/cochung/15397918/logs/userlogs/application_1522882331371_0003/container_1522882331371_0003_01_000002'
removed directory: `/scratch/cochung/15397918/logs/userlogs/application_1522882331371_0003'
removed directory: `/scratch/cochung/15397918/logs/userlogs'
removed `/scratch/cochung/15397918/logs/hadoop-cochung-datanode-comet-20-54.sdsc.edu.log'
removed `/scratch/cochung/15397918/logs/yarn-cochung-nodemanager-comet-20-54.sdsc.edu.log'
removed directory: `/scratch/cochung/15397918/logs'
removed directory: `/tmp/Jetty_0_0_0_0_50075_datanode____hwtdwq_6435553626528914528/jsp'
removed directory: `/tmp/Jetty_0_0_0_0_50075_datanode____hwtdwq_6435553626528914528/.active'
removed directory: `/tmp/Jetty_0_0_0_0_50075_datanode____hwtdwq_6435553626528914528'
removed directory: `/tmp/Jetty_0_0_0_0_50070_hdfs____w2cu08/jsp'
removed directory: `/tmp/Jetty_0_0_0_0_50070_hdfs____w2cu08/.active'
removed directory: `/tmp/Jetty_0_0_0_0_50070_hdfs____w2cu08'
removed directory: `/tmp/Jetty_comet.20.04_ibnet_50090_secondary____dhm5j7/jsp'
removed directory: `/tmp/Jetty_comet.20.04_ibnet_50090_secondary____dhm5j7/.active'
removed directory: `/tmp/Jetty_comet.20.04_ibnet_50090_secondary____dhm5j7'
